"Name_1"|"Level_1"|"Price_1"|"HP_1"|"Attack_1"|"Defense_1"|"Sp_Atk_1"|"Sp_Def_1"|"Speed_1"|"Legendary_1"|"SelectedPokemonID"
"Abra"|4|346|32|22|17|115|61|99|FALSE|1
"Abra"|26|614|80|38|26|197|103|170|FALSE|2
"Abra"|33|775|102|48|33|247|131|214|FALSE|3
"Abra"|45|937|129|56|39|298|158|257|FALSE|4
"Abra"|46|963|133|58|40|306|162|264|FALSE|5
"Abra"|47|985|136|59|41|313|166|270|FALSE|6
"Abra"|67|1594|227|94|68|505|266|434|FALSE|7
"Abra"|70|1753|250|104|75|555|292|477|FALSE|8
"Abra"|90|3156|448|190|135|997|526|860|FALSE|9
"Abra"|94|3565|506|215|152|1126|594|972|FALSE|10
"Aerodactyl"|4|560|87|114|70|65|82|142|FALSE|11
"Aerodactyl"|11|684|107|138|85|79|101|174|FALSE|12
"Aerodactyl"|32|1207|194|240|151|140|179|303|FALSE|13
"Aerodactyl"|36|1293|208|258|162|150|191|324|FALSE|14
"Aerodactyl"|46|1512|242|302|191|175|222|380|FALSE|15
"Aerodactyl"|48|1548|247|310|196|179|227|389|FALSE|16
"Aerodactyl"|51|1622|259|325|206|187|238|407|FALSE|17
"Aerodactyl"|64|2235|355|447|284|260|329|560|FALSE|18
"Aerodactyl"|84|3927|628|783|498|458|578|982|FALSE|19
"Aerodactyl"|98|6040|967|1204|765|705|888|1511|FALSE|20
"Alakazam"|9|615|77|60|54|162|115|147|FALSE|21
"Alakazam"|13|698|87|69|62|184|130|166|FALSE|22
"Alakazam"|19|824|107|80|73|216|152|196|FALSE|23
"Alakazam"|25|981|127|95|87|258|181|233|FALSE|24
"Alakazam"|43|1621|215|156|144|425|297|384|FALSE|25
"Alakazam"|66|2730|368|264|241|713|502|642|FALSE|26
"Alakazam"|76|3699|499|359|325|966|679|871|FALSE|27
"Alakazam"|79|3904|526|379|343|1020|716|920|FALSE|28
"Alakazam"|82|4087|550|397|360|1068|749|963|FALSE|29
"Alakazam"|90|4615|621|447|407|1207|845|1088|FALSE|30
"Arbok"|2|444|61|86|70|66|80|81|FALSE|31
"Arbok"|16|665|107|126|102|96|116|118|FALSE|32
"Arbok"|45|1468|244|276|225|212|254|257|FALSE|33
"Arbok"|49|1620|269|305|247|234|281|284|FALSE|34
"Arbok"|50|1698|282|320|259|245|294|298|FALSE|35
"Arbok"|73|3050|509|573|464|440|529|535|FALSE|36
"Arbok"|75|3274|547|615|498|472|568|574|FALSE|37
"Arbok"|81|3860|644|724|587|557|671|677|FALSE|38
"Arbok"|83|3949|659|741|600|570|686|693|FALSE|39
"Arbok"|87|4413|737|828|671|636|767|774|FALSE|40
"Arcanine"|1|555|90|110|80|100|80|95|FALSE|41
"Arcanine"|11|740|121|145|108|132|108|126|FALSE|42
"Arcanine"|13|781|128|153|114|139|114|133|FALSE|43
"Arcanine"|35|1399|243|271|203|246|203|233|FALSE|44
"Arcanine"|41|1622|282|313|236|285|236|270|FALSE|45
"Arcanine"|52|2274|394|439|331|398|331|381|FALSE|46
"Arcanine"|67|3533|610|682|516|616|516|593|FALSE|47
"Arcanine"|90|6153|1062|1190|897|1075|897|1032|FALSE|48
"Arcanine"|95|6737|1163|1303|982|1176|982|1131|FALSE|49
"Arcanine"|98|7526|1299|1456|1097|1313|1097|1264|FALSE|50
"Articuno"|4|649|100|95|112|107|140|95|TRUE|51
"Articuno"|25|1194|199|171|204|196|253|171|TRUE|52
"Articuno"|27|1250|208|179|214|205|265|179|TRUE|53
"Articuno"|49|2093|359|297|355|342|443|297|TRUE|54
"Articuno"|51|2134|366|303|362|349|451|303|TRUE|55
"Articuno"|55|2382|409|337|405|390|504|337|TRUE|56
"Articuno"|59|2566|441|363|436|420|543|363|TRUE|57
"Articuno"|73|3525|605|499|598|578|746|499|TRUE|58
"Articuno"|94|5760|987|817|977|946|1216|817|TRUE|59
"Articuno"|95|6041|1035|857|1025|992|1275|857|TRUE|60
"Beedrill"|1|395|65|90|40|45|80|75|FALSE|61
"Beedrill"|18|588|105|132|59|66|118|108|FALSE|62
"Beedrill"|24|674|124|150|68|75|134|123|FALSE|63
"Beedrill"|31|799|151|177|79|89|158|145|FALSE|64
"Beedrill"|44|1060|206|236|103|115|208|192|FALSE|65
"Beedrill"|46|1130|219|252|110|123|221|205|FALSE|66
"Beedrill"|57|1538|304|340|150|168|298|278|FALSE|67
"Beedrill"|88|3602|718|794|348|394|696|652|FALSE|68
"Beedrill"|91|3978|793|877|385|436|768|719|FALSE|69
"Beedrill"|95|4113|820|906|397|452|794|744|FALSE|70
"Bellsprout"|1|300|50|75|35|70|30|40|FALSE|71
"Bellsprout"|18|447|96|108|49|100|39|55|FALSE|72
"Bellsprout"|20|478|103|115|52|107|42|59|FALSE|73
"Bellsprout"|24|539|115|131|58|121|48|66|FALSE|74
"Bellsprout"|44|867|193|208|94|190|76|106|FALSE|75
"Bellsprout"|65|1623|360|391|176|356|142|198|FALSE|76
"Bellsprout"|71|1827|405|440|198|400|162|222|FALSE|77
"Bellsprout"|76|2049|454|493|222|449|182|249|FALSE|78
"Bellsprout"|98|3527|782|849|383|772|315|426|FALSE|79
"Bellsprout"|99|3537|784|852|384|774|316|427|FALSE|80
"Blastoise"|3|550|82|86|104|88|109|81|FALSE|81
"Blastoise"|21|893|133|139|168|142|179|132|FALSE|82
"Blastoise"|24|970|145|151|182|154|194|144|FALSE|83
"Blastoise"|33|1302|194|202|246|208|259|193|FALSE|84
"Blastoise"|45|1796|269|278|338|287|357|267|FALSE|85
"Blastoise"|48|1961|294|304|369|313|389|292|FALSE|86
"Blastoise"|52|2147|322|332|404|342|427|320|FALSE|87
"Blastoise"|54|2210|331|342|416|352|440|329|FALSE|88
"Blastoise"|84|4976|750|768|938|795|988|737|FALSE|89
"Blastoise"|89|5630|849|868|1062|899|1118|834|FALSE|90
"Bulbasaur"|15|460|70|70|70|93|93|64|FALSE|91
"Bulbasaur"|20|526|80|80|80|107|107|72|FALSE|92
"Bulbasaur"|29|630|113|93|93|124|124|83|FALSE|93
"Bulbasaur"|30|651|117|96|96|128|128|86|FALSE|94
"Bulbasaur"|46|894|186|127|127|169|169|116|FALSE|95
"Bulbasaur"|52|1016|211|144|144|193|193|131|FALSE|96
"Bulbasaur"|55|1115|232|159|159|211|211|143|FALSE|97
"Bulbasaur"|66|1468|307|210|210|277|277|187|FALSE|98
"Bulbasaur"|76|1902|397|272|272|359|359|243|FALSE|99
"Bulbasaur"|82|2221|464|317|317|420|420|283|FALSE|100
"Butterfree"|1|395|60|45|50|90|80|70|FALSE|101
"Butterfree"|9|477|87|52|58|106|92|82|FALSE|102
"Butterfree"|25|696|126|77|84|156|134|119|FALSE|103
"Butterfree"|31|803|145|88|98|181|154|137|FALSE|104
"Butterfree"|36|898|166|98|109|202|170|153|FALSE|105
"Butterfree"|55|1355|251|148|163|306|257|230|FALSE|106
"Butterfree"|67|1727|325|189|205|389|326|293|FALSE|107
"Butterfree"|78|2391|451|261|283|538|452|406|FALSE|108
"Butterfree"|80|2512|474|274|297|565|475|427|FALSE|109
"Butterfree"|82|2520|476|274|298|567|477|428|FALSE|110
"Chansey"|14|579|327|5|5|43|136|63|FALSE|111
"Chansey"|18|644|364|5|5|48|151|71|FALSE|112
"Chansey"|28|791|450|5|5|59|185|87|FALSE|113
"Chansey"|46|1170|665|5|5|88|277|130|FALSE|114
"Chansey"|61|1643|935|5|5|124|391|183|FALSE|115
"Chansey"|69|2017|1148|5|5|153|480|226|FALSE|116
"Chansey"|72|2138|1218|5|5|162|509|239|FALSE|117
"Chansey"|90|3255|1857|5|5|247|776|365|FALSE|118
"Chansey"|92|3550|2026|5|5|269|847|398|FALSE|119
"Chansey"|99|4050|2312|5|5|308|965|455|FALSE|120
"Charizard"|4|582|90|91|84|117|92|108|FALSE|121
"Charizard"|14|765|129|118|108|151|119|140|FALSE|122
"Charizard"|34|1314|220|203|185|258|206|242|FALSE|123
"Charizard"|45|1898|316|293|268|373|299|349|FALSE|124
"Charizard"|46|1991|332|307|281|391|314|366|FALSE|125
"Charizard"|50|2291|382|354|323|449|361|422|FALSE|126
"Charizard"|51|2349|392|363|331|460|370|433|FALSE|127
"Charizard"|54|2540|424|392|358|497|400|469|FALSE|128
"Charizard"|57|2707|452|418|381|530|426|500|FALSE|129
"Charizard"|59|2846|476|440|400|557|448|525|FALSE|130
"Charmander"|26|556|87|91|75|104|89|110|FALSE|131
"Charmander"|33|673|115|108|89|123|106|132|FALSE|132
"Charmander"|51|937|177|148|122|168|144|178|FALSE|133
"Charmander"|63|1289|245|203|167|230|198|246|FALSE|134
"Charmander"|75|1734|329|274|224|311|266|330|FALSE|135
"Charmander"|79|1918|368|303|247|343|293|364|FALSE|136
"Charmander"|80|1923|373|303|247|343|293|364|FALSE|137
"Charmander"|82|2013|395|316|258|358|306|380|FALSE|138
"Charmander"|96|2745|539|432|351|487|419|517|FALSE|139
"Charmander"|97|2818|553|444|360|500|430|531|FALSE|140
"Charmeleon"|26|836|124|134|117|163|135|163|FALSE|141
"Charmeleon"|40|1175|182|188|163|226|190|226|FALSE|142
"Charmeleon"|42|1240|192|198|172|239|200|239|FALSE|143
"Charmeleon"|43|1252|194|200|174|241|202|241|FALSE|144
"Charmeleon"|56|1702|263|271|238|327|276|327|FALSE|145
"Charmeleon"|59|1855|287|295|259|357|300|357|FALSE|146
"Charmeleon"|68|2198|339|351|306|423|356|423|FALSE|147
"Charmeleon"|73|2559|395|409|356|492|415|492|FALSE|148
"Charmeleon"|76|2653|410|424|369|510|430|510|FALSE|149
"Charmeleon"|89|3658|567|582|507|703|596|703|FALSE|150
"Clefable"|2|504|99|73|76|99|94|63|FALSE|151
"Clefable"|13|677|137|96|103|132|126|83|FALSE|152
"Clefable"|18|764|154|109|116|149|142|94|FALSE|153
"Clefable"|21|812|164|116|123|159|151|99|FALSE|154
"Clefable"|23|854|172|122|130|167|159|104|FALSE|155
"Clefable"|39|1297|268|185|195|251|241|157|FALSE|156
"Clefable"|48|1647|341|234|248|320|305|199|FALSE|157
"Clefable"|65|2549|532|362|381|495|473|306|FALSE|158
"Clefable"|76|3059|642|434|456|593|568|366|FALSE|159
"Clefable"|81|3373|712|477|502|654|626|402|FALSE|160
"Clefairy"|2|332|72|46|49|62|67|36|FALSE|161
"Clefairy"|25|617|144|87|91|109|122|64|FALSE|162
"Clefairy"|27|652|152|92|96|115|129|68|FALSE|163
"Clefairy"|29|662|162|92|96|115|129|68|FALSE|164
"Clefairy"|32|734|180|102|106|128|143|75|FALSE|165
"Clefairy"|37|858|215|118|123|149|165|88|FALSE|166
"Clefairy"|54|1325|333|180|191|231|254|136|FALSE|167
"Clefairy"|61|1527|383|208|220|266|293|157|FALSE|168
"Clefairy"|64|1572|394|215|227|274|301|161|FALSE|169
"Clefairy"|91|2893|734|396|415|502|553|293|FALSE|170
"Cloyster"|4|580|55|105|199|94|50|77|FALSE|171
"Cloyster"|16|825|78|150|282|133|72|110|FALSE|172
"Cloyster"|19|872|87|158|296|140|76|115|FALSE|173
"Cloyster"|20|910|91|165|309|146|79|120|FALSE|174
"Cloyster"|21|915|96|165|309|146|79|120|FALSE|175
"Cloyster"|25|992|104|179|335|158|86|130|FALSE|176
"Cloyster"|42|1528|162|275|517|242|131|201|FALSE|177
"Cloyster"|47|1747|186|315|590|276|151|229|FALSE|178
"Cloyster"|63|2624|287|472|883|414|223|345|FALSE|179
"Cloyster"|99|6945|764|1252|2336|1095|586|912|FALSE|180
"Cubone"|6|375|68|57|108|45|57|40|FALSE|181
"Cubone"|16|490|98|73|138|57|73|51|FALSE|182
"Cubone"|19|540|112|80|150|62|80|56|FALSE|183
"Cubone"|22|589|122|87|163|68|87|62|FALSE|184
"Cubone"|28|693|145|102|191|80|102|73|FALSE|185
"Cubone"|46|1122|233|165|310|131|165|118|FALSE|186
"Cubone"|50|1288|267|190|355|151|190|135|FALSE|187
"Cubone"|67|1866|387|275|513|220|275|196|FALSE|188
"Cubone"|70|2057|427|303|565|243|303|216|FALSE|189
"Cubone"|87|3221|668|476|885|381|476|335|FALSE|190
"Dewgong"|4|541|102|80|91|80|108|80|FALSE|191
"Dewgong"|29|1084|212|160|178|160|214|160|FALSE|192
"Dewgong"|68|2778|547|408|452|408|555|408|FALSE|193
"Dewgong"|72|2996|590|440|487|440|599|440|FALSE|194
"Dewgong"|75|3236|638|475|526|475|647|475|FALSE|195
"Dewgong"|82|3911|770|574|637|574|782|574|FALSE|196
"Dewgong"|87|4494|886|659|731|659|900|659|FALSE|197
"Dewgong"|88|4537|895|665|738|665|909|665|FALSE|198
"Dewgong"|90|4789|945|702|779|702|959|702|FALSE|199
"Dewgong"|96|5703|1125|836|928|836|1142|836|FALSE|200
"Diglett"|1|265|10|55|25|35|45|95|FALSE|201
"Diglett"|19|430|66|78|32|50|65|139|FALSE|202
"Diglett"|22|455|74|81|33|53|68|146|FALSE|203
"Diglett"|25|479|82|84|34|55|71|153|FALSE|204
"Diglett"|34|615|111|108|42|69|91|194|FALSE|205
"Diglett"|36|626|121|108|42|69|91|195|FALSE|206
"Diglett"|39|691|133|120|46|77|100|215|FALSE|207
"Diglett"|40|710|137|123|47|79|103|221|FALSE|208
"Diglett"|54|1042|205|179|69|116|150|323|FALSE|209
"Diglett"|81|2172|443|371|144|242|308|664|FALSE|210
"Ditto"|1|288|48|48|48|48|48|48|FALSE|211
"Ditto"|3|312|52|52|52|52|52|52|FALSE|212
"Ditto"|37|659|154|101|101|101|101|101|FALSE|213
"Ditto"|38|691|161|106|106|106|106|106|FALSE|214
"Ditto"|41|755|175|116|116|116|116|116|FALSE|215
"Ditto"|44|782|182|120|120|120|120|120|FALSE|216
"Ditto"|48|875|205|134|134|134|134|134|FALSE|217
"Ditto"|68|1361|326|207|207|207|207|207|FALSE|218
"Ditto"|70|1406|336|214|214|214|214|214|FALSE|219
"Ditto"|75|1556|371|237|237|237|237|237|FALSE|220
"Dodrio"|4|495|69|118|74|64|64|106|FALSE|221
"Dodrio"|10|586|87|138|87|75|75|124|FALSE|222
"Dodrio"|11|611|91|144|91|78|78|129|FALSE|223
"Dodrio"|24|790|128|183|118|99|99|163|FALSE|224
"Dodrio"|30|859|145|198|126|107|107|176|FALSE|225
"Dodrio"|34|930|160|214|136|115|115|190|FALSE|226
"Dodrio"|58|1747|306|400|256|215|215|355|FALSE|227
"Dodrio"|71|2340|416|533|342|288|288|473|FALSE|228
"Dodrio"|77|2738|487|623|400|337|337|554|FALSE|229
"Dodrio"|78|2763|491|629|404|340|340|559|FALSE|230
"Doduo"|3|322|41|87|46|36|36|76|FALSE|231
"Doduo"|12|390|55|102|56|43|43|91|FALSE|232
"Doduo"|16|442|62|116|63|49|49|103|FALSE|233
"Doduo"|42|858|121|222|124|96|96|199|FALSE|234
"Doduo"|50|1036|146|268|150|116|116|240|FALSE|235
"Doduo"|51|1044|147|270|151|117|117|242|FALSE|236
"Doduo"|54|1127|159|291|163|126|126|262|FALSE|237
"Doduo"|65|1484|213|382|213|166|166|344|FALSE|238
"Doduo"|68|1647|237|424|237|184|184|381|FALSE|239
"Doduo"|73|1919|276|495|276|214|214|444|FALSE|240
"Dragonair"|5|481|70|96|75|80|80|80|FALSE|241
"Dragonair"|13|586|95|115|88|96|96|96|FALSE|242
"Dragonair"|18|678|110|133|102|111|111|111|FALSE|243
"Dragonair"|19|684|111|134|103|112|112|112|FALSE|244
"Dragonair"|23|740|125|143|109|121|121|121|FALSE|245
"Dragonair"|35|958|165|183|142|156|156|156|FALSE|246
"Dragonair"|59|1737|306|333|252|282|282|282|FALSE|247
"Dragonair"|72|2460|433|472|358|399|399|399|FALSE|248
"Dragonair"|78|2801|494|537|408|454|454|454|FALSE|249
"Dragonair"|90|3799|669|726|553|617|617|617|FALSE|250
"Dragonite"|39|1595|254|356|248|264|264|209|FALSE|251
"Dragonite"|41|1657|264|370|258|274|274|217|FALSE|252
"Dragonite"|46|1833|297|409|284|302|302|239|FALSE|253
"Dragonite"|58|2392|393|533|371|393|393|309|FALSE|254
"Dragonite"|59|2488|409|554|386|409|409|321|FALSE|255
"Dragonite"|63|2773|456|617|430|456|456|358|FALSE|256
"Dragonite"|84|4417|726|983|685|726|726|571|FALSE|257
"Dragonite"|86|4679|769|1041|726|769|769|605|FALSE|258
"Dragonite"|89|5103|839|1135|792|839|839|659|FALSE|259
"Dragonite"|91|5291|870|1177|821|870|870|683|FALSE|260
"Dratini"|5|330|50|69|49|54|54|54|FALSE|261
"Dratini"|10|381|62|78|55|62|62|62|FALSE|262
"Dratini"|24|521|88|109|75|83|83|83|FALSE|263
"Dratini"|30|590|105|122|84|93|93|93|FALSE|264
"Dratini"|37|717|128|148|102|113|113|113|FALSE|265
"Dratini"|40|754|134|155|108|119|119|119|FALSE|266
"Dratini"|44|840|149|172|120|133|133|133|FALSE|267
"Dratini"|56|1251|223|255|179|198|198|198|FALSE|268
"Dratini"|86|2685|498|545|379|421|421|421|FALSE|269
"Dratini"|87|2723|505|553|384|427|427|427|FALSE|270
"Drowzee"|1|328|60|48|45|43|90|42|FALSE|271
"Drowzee"|8|425|80|61|58|55|117|54|FALSE|272
"Drowzee"|21|618|122|86|83|80|168|79|FALSE|273
"Drowzee"|23|648|128|90|87|84|176|83|FALSE|274
"Drowzee"|47|1114|221|154|149|145|301|144|FALSE|275
"Drowzee"|59|1470|294|202|196|192|395|191|FALSE|276
"Drowzee"|60|1516|303|208|202|198|408|197|FALSE|277
"Drowzee"|61|1561|312|214|208|204|420|203|FALSE|278
"Drowzee"|76|2108|421|288|281|276|567|275|FALSE|279
"Drowzee"|84|2640|529|361|352|344|711|343|FALSE|280
"Dugtrio"|15|542|64|103|64|64|91|156|FALSE|281
"Dugtrio"|21|668|84|126|78|78|111|191|FALSE|282
"Dugtrio"|45|1223|172|226|142|142|199|342|FALSE|283
"Dugtrio"|63|1726|249|318|199|199|279|482|FALSE|284
"Dugtrio"|64|1769|255|326|204|204|286|494|FALSE|285
"Dugtrio"|67|1863|274|342|214|214|300|519|FALSE|286
"Dugtrio"|69|1933|285|354|222|222|311|539|FALSE|287
"Dugtrio"|71|1967|289|360|226|226|317|549|FALSE|288
"Dugtrio"|76|2324|340|425|267|267|376|649|FALSE|289
"Dugtrio"|79|2462|360|450|283|283|398|688|FALSE|290
"Eevee"|2|341|58|58|52|47|68|58|FALSE|291
"Eevee"|9|418|71|71|64|57|84|71|FALSE|292
"Eevee"|11|436|78|73|66|59|87|73|FALSE|293
"Eevee"|19|500|102|81|74|65|97|81|FALSE|294
"Eevee"|21|543|111|88|80|71|105|88|FALSE|295
"Eevee"|24|558|126|88|80|71|105|88|FALSE|296
"Eevee"|39|832|188|131|119|107|156|131|FALSE|297
"Eevee"|49|1071|242|168|154|138|201|168|FALSE|298
"Eevee"|61|1303|299|203|188|167|243|203|FALSE|299
"Eevee"|73|1816|416|283|263|232|339|283|FALSE|300
"Ekans"|5|330|44|67|50|46|61|62|FALSE|301
"Ekans"|9|366|53|73|55|50|67|68|FALSE|302
"Ekans"|14|421|65|84|62|55|77|78|FALSE|303
"Ekans"|17|452|70|90|66|59|83|84|FALSE|304
"Ekans"|18|457|75|90|66|59|83|84|FALSE|305
"Ekans"|39|769|141|149|110|96|135|138|FALSE|306
"Ekans"|44|892|167|172|128|110|156|159|FALSE|307
"Ekans"|50|1003|188|193|142|124|176|180|FALSE|308
"Ekans"|61|1397|261|269|199|173|245|250|FALSE|309
"Ekans"|80|2196|413|423|314|272|384|390|FALSE|310
"Electabuzz"|2|500|66|85|58|97|87|107|FALSE|311
"Electabuzz"|28|928|143|154|104|177|158|192|FALSE|312
"Electabuzz"|31|1027|158|170|115|196|176|212|FALSE|313
"Electabuzz"|39|1284|198|213|142|246|221|264|FALSE|314
"Electabuzz"|42|1414|217|235|156|271|243|292|FALSE|315
"Electabuzz"|44|1441|221|240|159|276|248|297|FALSE|316
"Electabuzz"|47|1559|239|260|171|299|269|321|FALSE|317
"Electabuzz"|48|1567|240|261|172|301|270|323|FALSE|318
"Electabuzz"|60|2074|317|346|228|399|357|427|FALSE|319
"Electabuzz"|86|3942|608|657|429|758|679|811|FALSE|320
"Electrode"|11|635|90|66|91|103|103|182|FALSE|321
"Electrode"|19|783|111|82|112|127|127|224|FALSE|322
"Electrode"|28|972|144|100|140|156|156|276|FALSE|323
"Electrode"|35|1059|162|109|151|169|169|299|FALSE|324
"Electrode"|56|1903|288|192|269|307|307|540|FALSE|325
"Electrode"|65|2374|364|239|333|383|383|672|FALSE|326
"Electrode"|66|2454|376|247|344|396|396|695|FALSE|327
"Electrode"|68|2545|390|256|356|411|411|721|FALSE|328
"Electrode"|92|4595|703|462|642|744|744|1300|FALSE|329
"Electrode"|93|4819|737|485|673|780|780|1364|FALSE|330
"Exeggcute"|14|484|104|58|115|85|64|58|FALSE|331
"Exeggcute"|39|939|222|109|218|161|120|109|FALSE|332
"Exeggcute"|42|984|240|113|226|167|125|113|FALSE|333
"Exeggcute"|49|1107|271|127|254|188|140|127|FALSE|334
"Exeggcute"|53|1246|306|142|286|212|158|142|FALSE|335
"Exeggcute"|59|1398|344|160|320|237|177|160|FALSE|336
"Exeggcute"|83|2565|630|296|585|436|322|296|FALSE|337
"Exeggcute"|95|3470|853|400|789|591|437|400|FALSE|338
"Exeggcute"|96|3496|859|403|795|596|440|403|FALSE|339
"Exeggcute"|97|3662|900|422|833|624|461|422|FALSE|340
"Exeggutor"|10|643|117|117|105|155|82|67|FALSE|341
"Exeggutor"|16|730|133|133|121|175|92|76|FALSE|342
"Exeggutor"|17|733|134|134|121|176|92|76|FALSE|343
"Exeggutor"|20|793|145|145|131|190|100|82|FALSE|344
"Exeggutor"|23|860|157|157|142|206|109|89|FALSE|345
"Exeggutor"|25|892|163|163|147|213|113|93|FALSE|346
"Exeggutor"|42|1459|268|268|240|346|184|153|FALSE|347
"Exeggutor"|68|2612|484|478|427|623|327|273|FALSE|348
"Exeggutor"|78|3201|592|586|524|764|401|334|FALSE|349
"Exeggutor"|94|4972|918|910|812|1189|624|519|FALSE|350
"Farfetch'd"|6|393|67|71|60|63|67|65|FALSE|351
"Farfetch'd"|13|476|91|85|69|74|80|77|FALSE|352
"Farfetch'd"|17|523|99|93|76|82|88|85|FALSE|353
"Farfetch'd"|22|580|109|103|85|91|98|94|FALSE|354
"Farfetch'd"|31|745|140|132|109|118|125|121|FALSE|355
"Farfetch'd"|38|855|161|152|125|135|143|139|FALSE|356
"Farfetch'd"|43|1022|193|182|150|161|171|165|FALSE|357
"Farfetch'd"|68|1808|346|316|267|286|302|291|FALSE|358
"Farfetch'd"|70|1980|379|346|292|313|331|319|FALSE|359
"Farfetch'd"|77|2195|428|381|322|346|365|353|FALSE|360
"Fearow"|8|500|87|99|71|67|67|109|FALSE|361
"Fearow"|16|605|106|120|86|81|81|131|FALSE|362
"Fearow"|38|1110|192|221|156|150|150|241|FALSE|363
"Fearow"|42|1242|215|248|174|168|168|269|FALSE|364
"Fearow"|44|1291|228|257|180|174|174|278|FALSE|365
"Fearow"|49|1414|250|282|197|191|191|303|FALSE|366
"Fearow"|71|2377|420|473|333|322|322|507|FALSE|367
"Fearow"|74|2532|447|504|355|343|343|540|FALSE|368
"Fearow"|80|2800|494|558|392|379|379|598|FALSE|369
"Fearow"|90|3795|670|757|530|514|514|810|FALSE|370
"Flareon"|2|547|68|135|62|99|115|68|FALSE|371
"Flareon"|5|605|75|150|69|109|127|75|FALSE|372
"Flareon"|27|1034|143|251|117|181|214|128|FALSE|373
"Flareon"|38|1448|201|350|165|253|300|179|FALSE|374
"Flareon"|45|1630|235|392|185|283|336|199|FALSE|375
"Flareon"|56|2026|296|487|230|353|416|244|FALSE|376
"Flareon"|72|3082|450|743|349|536|634|370|FALSE|377
"Flareon"|73|3174|464|765|359|552|653|381|FALSE|378
"Flareon"|90|4819|704|1160|547|837|992|579|FALSE|379
"Flareon"|96|5396|788|1298|612|936|1112|650|FALSE|380
"Gastly"|6|373|41|42|34|119|42|95|FALSE|381
"Gastly"|21|543|88|56|47|166|56|130|FALSE|382
"Gastly"|25|609|99|62|53|187|62|146|FALSE|383
"Gastly"|42|912|153|93|81|276|93|216|FALSE|384
"Gastly"|47|1068|179|109|95|323|109|253|FALSE|385
"Gastly"|51|1200|202|123|106|363|123|283|FALSE|386
"Gastly"|66|1643|282|167|146|494|167|387|FALSE|387
"Gastly"|74|2034|349|207|181|611|207|479|FALSE|388
"Gastly"|79|2315|397|236|205|696|236|545|FALSE|389
"Gastly"|89|2921|500|298|259|879|298|687|FALSE|390
"Gengar"|8|574|78|75|68|145|85|123|FALSE|391
"Gengar"|11|630|86|82|74|159|94|135|FALSE|392
"Gengar"|16|722|98|94|86|182|108|154|FALSE|393
"Gengar"|18|766|104|100|91|193|114|164|FALSE|394
"Gengar"|25|880|124|115|104|220|129|188|FALSE|395
"Gengar"|52|1595|239|208|183|395|232|338|FALSE|396
"Gengar"|67|2330|348|304|267|576|340|495|FALSE|397
"Gengar"|68|2432|363|317|279|601|355|517|FALSE|398
"Gengar"|74|2695|402|351|310|665|393|574|FALSE|399
"Gengar"|89|3880|577|506|447|957|567|826|FALSE|400
"Geodude"|7|361|48|95|120|37|37|24|FALSE|401
"Geodude"|21|518|85|130|166|53|53|31|FALSE|402
"Geodude"|24|555|90|140|179|56|56|34|FALSE|403
"Geodude"|32|685|111|172|221|70|70|41|FALSE|404
"Geodude"|35|760|122|191|245|78|78|46|FALSE|405
"Geodude"|37|809|129|204|261|83|83|49|FALSE|406
"Geodude"|51|1249|199|316|401|128|128|77|FALSE|407
"Geodude"|53|1291|206|327|415|132|132|79|FALSE|408
"Geodude"|71|1957|318|495|627|200|200|117|FALSE|409
"Geodude"|73|2070|336|524|664|211|211|124|FALSE|410
"Gloom"|1|395|60|65|70|85|75|40|FALSE|411
"Gloom"|6|450|68|74|81|96|86|45|FALSE|412
"Gloom"|18|564|98|90|98|119|105|54|FALSE|413
"Gloom"|33|781|155|122|131|159|142|72|FALSE|414
"Gloom"|35|800|163|124|133|162|145|73|FALSE|415
"Gloom"|41|933|199|143|153|186|168|84|FALSE|416
"Gloom"|54|1209|260|184|197|242|217|109|FALSE|417
"Gloom"|65|1639|352|250|267|327|295|148|FALSE|418
"Gloom"|92|2927|635|446|473|583|526|264|FALSE|419
"Gloom"|99|3455|749|527|558|689|621|311|FALSE|420
"Golbat"|17|601|113|103|90|83|97|115|FALSE|421
"Golbat"|40|1140|218|198|170|155|184|215|FALSE|422
"Golbat"|47|1444|277|250|216|195|233|273|FALSE|423
"Golbat"|53|1692|324|293|254|229|272|320|FALSE|424
"Golbat"|56|1728|331|300|258|233|279|327|FALSE|425
"Golbat"|59|1897|363|329|284|256|306|359|FALSE|426
"Golbat"|66|2244|429|390|337|301|362|425|FALSE|427
"Golbat"|78|2987|571|519|449|400|481|567|FALSE|428
"Golbat"|97|4802|926|831|723|641|773|908|FALSE|429
"Golbat"|98|5020|968|869|756|670|808|949|FALSE|430
"Goldeen"|3|340|48|71|64|37|53|67|FALSE|431
"Goldeen"|18|509|84|105|93|53|77|97|FALSE|432
"Goldeen"|35|849|148|173|153|89|125|161|FALSE|433
"Goldeen"|46|1080|188|220|194|116|158|204|FALSE|434
"Goldeen"|54|1293|234|263|230|138|187|241|FALSE|435
"Goldeen"|58|1522|276|310|270|162|220|284|FALSE|436
"Goldeen"|59|1571|285|320|279|167|227|293|FALSE|437
"Goldeen"|64|1709|314|347|302|181|247|318|FALSE|438
"Goldeen"|73|2198|409|446|388|233|316|406|FALSE|439
"Goldeen"|94|3722|691|755|655|397|537|687|FALSE|440
"Golduck"|7|592|94|97|92|113|94|102|FALSE|441
"Golduck"|18|833|137|135|130|159|132|140|FALSE|442
"Golduck"|37|1384|227|223|217|266|219|232|FALSE|443
"Golduck"|40|1527|250|246|240|294|242|255|FALSE|444
"Golduck"|51|1992|330|320|313|383|315|331|FALSE|445
"Golduck"|53|2107|349|339|331|405|333|350|FALSE|446
"Golduck"|64|2521|418|406|396|484|398|419|FALSE|447
"Golduck"|65|2646|439|426|415|508|418|440|FALSE|448
"Golduck"|83|4586|761|740|717|883|723|762|FALSE|449
"Golduck"|94|6303|1045|1016|986|1214|995|1047|FALSE|450
"Graveler"|13|526|88|124|150|59|59|46|FALSE|451
"Graveler"|30|805|146|188|224|89|89|69|FALSE|452
"Graveler"|31|831|151|194|231|92|92|71|FALSE|453
"Graveler"|59|1782|336|413|493|195|195|150|FALSE|454
"Graveler"|64|2032|384|472|562|222|222|170|FALSE|455
"Graveler"|66|2123|401|493|587|232|232|178|FALSE|456
"Graveler"|79|2998|567|697|830|327|327|250|FALSE|457
"Graveler"|89|3877|732|903|1074|422|422|324|FALSE|458
"Graveler"|98|5031|952|1172|1394|546|546|421|FALSE|459
"Graveler"|99|5042|954|1175|1397|547|547|422|FALSE|460
"Grimer"|14|453|118|109|69|54|69|34|FALSE|461
"Grimer"|15|459|120|110|70|55|70|34|FALSE|462
"Grimer"|25|555|155|132|81|65|81|41|FALSE|463
"Grimer"|27|572|159|136|84|67|84|42|FALSE|464
"Grimer"|49|960|273|228|140|111|140|68|FALSE|465
"Grimer"|52|1013|288|240|148|118|148|71|FALSE|466
"Grimer"|53|1025|291|243|150|119|150|72|FALSE|467
"Grimer"|56|1115|317|264|163|130|163|78|FALSE|468
"Grimer"|64|1349|384|320|197|156|197|95|FALSE|469
"Grimer"|69|1532|436|363|224|177|224|108|FALSE|470
"Growlithe"|17|548|99|107|67|107|77|91|FALSE|471
"Growlithe"|21|639|115|125|78|125|90|106|FALSE|472
"Growlithe"|30|844|156|165|103|165|116|139|FALSE|473
"Growlithe"|40|1108|214|214|134|214|150|182|FALSE|474
"Growlithe"|57|1804|349|349|218|349|242|297|FALSE|475
"Growlithe"|64|2158|418|418|259|418|289|356|FALSE|476
"Growlithe"|66|2297|445|445|276|445|308|378|FALSE|477
"Growlithe"|79|3020|585|585|364|585|405|496|FALSE|478
"Growlithe"|82|3181|616|616|383|616|427|523|FALSE|479
"Growlithe"|96|4746|920|920|570|920|635|781|FALSE|480
"Gyarados"|27|1008|196|226|144|110|182|150|FALSE|481
"Gyarados"|31|1092|212|246|156|119|197|162|FALSE|482
"Gyarados"|54|1820|364|409|259|194|326|268|FALSE|483
"Gyarados"|65|2521|504|567|358|269|450|373|FALSE|484
"Gyarados"|71|3012|603|678|427|321|537|446|FALSE|485
"Gyarados"|73|3157|632|710|447|337|563|468|FALSE|486
"Gyarados"|77|3396|680|764|481|363|605|503|FALSE|487
"Gyarados"|81|3655|732|822|518|392|651|540|FALSE|488
"Gyarados"|87|4317|864|971|613|463|768|638|FALSE|489
"Gyarados"|91|4884|977|1098|694|523|870|722|FALSE|490
"Haunter"|8|469|66|56|50|130|61|106|FALSE|491
"Haunter"|11|503|75|60|53|138|65|112|FALSE|492
"Haunter"|21|696|102|83|74|190|92|155|FALSE|493
"Haunter"|40|1295|202|150|138|350|171|284|FALSE|494
"Haunter"|53|1800|286|207|192|486|236|393|FALSE|495
"Haunter"|56|1900|302|219|202|513|249|415|FALSE|496
"Haunter"|63|2194|348|253|233|592|289|479|FALSE|497
"Haunter"|64|2212|351|255|235|597|291|483|FALSE|498
"Haunter"|88|4086|657|473|429|1100|536|891|FALSE|499
"Haunter"|92|4511|730|521|473|1213|591|983|FALSE|500
"Hitmonchan"|3|465|56|106|80|35|111|77|FALSE|501
"Hitmonchan"|23|763|102|170|129|58|183|121|FALSE|502
"Hitmonchan"|24|768|107|170|129|58|183|121|FALSE|503
"Hitmonchan"|25|773|112|170|129|58|183|121|FALSE|504
"Hitmonchan"|37|1016|154|222|168|76|238|158|FALSE|505
"Hitmonchan"|41|1160|176|254|191|86|272|181|FALSE|506
"Hitmonchan"|61|1940|300|423|318|142|455|302|FALSE|507
"Hitmonchan"|73|2581|398|564|423|188|605|403|FALSE|508
"Hitmonchan"|80|2995|462|654|492|218|702|467|FALSE|509
"Hitmonchan"|83|3273|504|715|538|239|768|509|FALSE|510
"Hitmonlee"|10|559|71|145|64|43|132|104|FALSE|511
"Hitmonlee"|21|736|93|190|83|57|175|138|FALSE|512
"Hitmonlee"|23|759|100|195|85|58|179|142|FALSE|513
"Hitmonlee"|35|1023|145|261|112|77|239|189|FALSE|514
"Hitmonlee"|36|1050|149|268|115|79|245|194|FALSE|515
"Hitmonlee"|63|2088|294|530|229|161|484|390|FALSE|516
"Hitmonlee"|65|2194|309|557|240|169|509|410|FALSE|517
"Hitmonlee"|66|2260|318|574|247|174|525|422|FALSE|518
"Hitmonlee"|87|3842|542|976|417|296|894|717|FALSE|519
"Hitmonlee"|95|4566|655|1157|494|351|1059|850|FALSE|520
"Horsea"|6|359|41|47|85|85|29|72|FALSE|521
"Horsea"|14|428|68|53|96|96|32|83|FALSE|522
"Horsea"|27|678|110|85|151|151|51|130|FALSE|523
"Horsea"|32|815|131|102|182|182|62|156|FALSE|524
"Horsea"|34|823|133|102|184|184|62|158|FALSE|525
"Horsea"|43|1057|171|128|238|238|81|201|FALSE|526
"Horsea"|44|1084|176|131|244|244|83|206|FALSE|527
"Horsea"|55|1493|242|181|336|336|114|284|FALSE|528
"Horsea"|61|1769|287|213|398|398|136|337|FALSE|529
"Horsea"|89|3643|592|439|820|820|279|693|FALSE|530
"Hypno"|2|489|90|73|70|73|116|67|FALSE|531
"Hypno"|25|914|172|135|131|135|215|126|FALSE|532
"Hypno"|27|964|182|142|138|142|227|133|FALSE|533
"Hypno"|65|2508|483|369|357|369|588|342|FALSE|534
"Hypno"|66|2575|496|379|366|379|604|351|FALSE|535
"Hypno"|77|3393|654|501|481|501|794|462|FALSE|536
"Hypno"|83|3880|747|574|550|574|907|528|FALSE|537
"Hypno"|85|3936|762|581|557|581|920|535|FALSE|538
"Hypno"|87|4116|797|608|583|608|961|559|FALSE|539
"Hypno"|88|4250|823|628|602|628|992|577|FALSE|540
"Ivysaur"|3|443|66|68|69|87|87|66|FALSE|541
"Ivysaur"|19|633|120|92|93|119|119|90|FALSE|542
"Ivysaur"|24|705|133|103|104|132|132|101|FALSE|543
"Ivysaur"|28|759|144|110|111|143|143|108|FALSE|544
"Ivysaur"|39|973|189|141|142|182|182|137|FALSE|545
"Ivysaur"|41|1040|202|151|152|194|194|147|FALSE|546
"Ivysaur"|47|1217|235|178|179|227|227|171|FALSE|547
"Ivysaur"|52|1387|269|203|204|258|258|195|FALSE|548
"Ivysaur"|55|1546|300|227|228|287|287|217|FALSE|549
"Ivysaur"|82|3479|676|512|513|647|647|484|FALSE|550
"Jigglypuff"|3|283|123|46|21|46|26|21|FALSE|551
"Jigglypuff"|4|292|127|47|22|47|27|22|FALSE|552
"Jigglypuff"|22|460|207|70|35|70|43|35|FALSE|553
"Jigglypuff"|26|503|229|76|38|76|46|38|FALSE|554
"Jigglypuff"|39|670|309|100|50|100|61|50|FALSE|555
"Jigglypuff"|43|718|331|107|54|107|65|54|FALSE|556
"Jigglypuff"|59|1029|481|151|76|151|94|76|FALSE|557
"Jigglypuff"|74|1462|687|215|106|215|133|106|FALSE|558
"Jigglypuff"|90|2261|1066|331|164|331|205|164|FALSE|559
"Jigglypuff"|94|2503|1180|367|181|367|227|181|FALSE|560
"Jolteon"|21|818|117|97|92|170|145|197|FALSE|561
"Jolteon"|22|824|118|98|93|171|146|198|FALSE|562
"Jolteon"|27|921|137|109|103|190|163|219|FALSE|563
"Jolteon"|45|1470|223|171|164|301|260|351|FALSE|564
"Jolteon"|55|1989|307|230|223|405|352|472|FALSE|565
"Jolteon"|71|2949|465|341|327|597|522|697|FALSE|566
"Jolteon"|73|2993|472|346|332|606|529|708|FALSE|567
"Jolteon"|88|4653|734|539|518|941|821|1100|FALSE|568
"Jolteon"|89|4684|739|543|521|947|827|1107|FALSE|569
"Jolteon"|98|6018|949|698|669|1217|1063|1422|FALSE|570
"Jynx"|6|514|74|57|39|130|107|107|FALSE|571
"Jynx"|7|520|75|58|39|132|108|108|FALSE|572
"Jynx"|16|636|96|71|47|158|132|132|FALSE|573
"Jynx"|25|786|123|86|58|193|163|163|FALSE|574
"Jynx"|31|951|153|103|70|233|196|196|FALSE|575
"Jynx"|39|1187|190|130|87|292|244|244|FALSE|576
"Jynx"|57|1748|279|192|128|427|361|361|FALSE|577
"Jynx"|63|2095|336|230|152|513|432|432|FALSE|578
"Jynx"|92|4779|768|523|345|1169|987|987|FALSE|579
"Jynx"|97|5389|866|590|389|1318|1113|1113|FALSE|580
"Kabuto"|5|395|38|87|98|61|50|61|FALSE|581
"Kabuto"|23|607|76|130|147|90|74|90|FALSE|582
"Kabuto"|27|648|86|138|156|95|78|95|FALSE|583
"Kabuto"|37|855|116|181|205|125|103|125|FALSE|584
"Kabuto"|49|1130|159|239|269|163|137|163|FALSE|585
"Kabuto"|56|1362|192|288|323|197|165|197|FALSE|586
"Kabuto"|58|1374|202|289|324|197|165|197|FALSE|587
"Kabuto"|64|1555|229|329|366|222|187|222|FALSE|588
"Kabuto"|66|1638|241|347|385|234|197|234|FALSE|589
"Kabuto"|88|2731|407|576|642|390|326|390|FALSE|590
"Kabutops"|17|747|96|174|158|96|104|119|FALSE|591
"Kabutops"|35|1168|150|272|247|150|163|186|FALSE|592
"Kabutops"|37|1224|157|285|259|157|171|195|FALSE|593
"Kabutops"|48|1674|218|390|354|212|234|266|FALSE|594
"Kabutops"|60|2400|314|560|506|303|336|381|FALSE|595
"Kabutops"|76|3314|437|769|698|421|463|526|FALSE|596
"Kabutops"|83|3934|519|913|828|499|550|625|FALSE|597
"Kabutops"|86|3980|529|923|837|504|556|631|FALSE|598
"Kabutops"|95|4886|649|1133|1027|618|684|775|FALSE|599
"Kabutops"|99|5405|717|1254|1136|684|757|857|FALSE|600
"Kadabra"|5|439|44|38|33|132|77|115|FALSE|601
"Kadabra"|10|498|59|43|35|147|86|128|FALSE|602
"Kadabra"|11|505|60|44|35|149|87|130|FALSE|603
"Kadabra"|17|549|71|47|37|161|94|139|FALSE|604
"Kadabra"|19|561|81|47|37|162|94|140|FALSE|605
"Kadabra"|50|1247|195|101|80|352|211|308|FALSE|606
"Kadabra"|51|1262|197|102|81|356|214|312|FALSE|607
"Kadabra"|52|1270|198|103|82|358|215|314|FALSE|608
"Kadabra"|67|1981|313|159|128|556|336|489|FALSE|609
"Kadabra"|83|3110|493|249|201|871|527|769|FALSE|610
"Kakuna"|1|205|45|25|50|25|25|35|FALSE|611
"Kakuna"|15|300|78|33|73|33|33|50|FALSE|612
"Kakuna"|34|485|136|51|117|51|51|79|FALSE|613
"Kakuna"|39|539|153|56|130|56|56|88|FALSE|614
"Kakuna"|46|647|182|68|155|68|68|106|FALSE|615
"Kakuna"|59|835|238|88|197|88|88|136|FALSE|616
"Kakuna"|78|1405|407|146|330|146|146|230|FALSE|617
"Kakuna"|79|1414|410|147|332|147|147|231|FALSE|618
"Kakuna"|80|1482|430|154|348|154|154|242|FALSE|619
"Kakuna"|98|2251|654|233|528|233|233|370|FALSE|620
"Kangaskhan"|9|608|134|116|99|49|99|111|FALSE|621
"Kangaskhan"|11|636|140|121|104|51|104|116|FALSE|622
"Kangaskhan"|28|1037|237|195|168|83|168|186|FALSE|623
"Kangaskhan"|41|1465|340|273|237|115|237|263|FALSE|624
"Kangaskhan"|46|1638|379|306|265|129|265|294|FALSE|625
"Kangaskhan"|49|1752|406|327|283|139|283|314|FALSE|626
"Kangaskhan"|53|1963|455|366|317|156|317|352|FALSE|627
"Kangaskhan"|73|3345|779|623|540|266|540|597|FALSE|628
"Kangaskhan"|93|5052|1176|941|815|403|815|902|FALSE|629
"Kangaskhan"|98|5565|1297|1037|897|444|897|993|FALSE|630
"Kingler"|10|588|74|160|141|60|60|93|FALSE|631
"Kingler"|14|639|80|173|154|66|66|100|FALSE|632
"Kingler"|45|1361|188|362|321|140|140|210|FALSE|633
"Kingler"|72|2559|362|678|601|264|264|390|FALSE|634
"Kingler"|85|3450|489|913|813|354|354|527|FALSE|635
"Kingler"|88|3548|507|938|835|363|363|542|FALSE|636
"Kingler"|93|4019|574|1062|946|411|411|615|FALSE|637
"Kingler"|94|4125|589|1090|971|422|422|631|FALSE|638
"Kingler"|98|4724|675|1248|1112|483|483|723|FALSE|639
"Kingler"|99|4919|703|1299|1158|503|503|753|FALSE|640
"Koffing"|7|416|59|78|114|70|54|41|FALSE|641
"Koffing"|28|721|111|134|194|119|91|72|FALSE|642
"Koffing"|35|858|136|158|230|141|108|85|FALSE|643
"Koffing"|44|1028|176|187|271|166|128|100|FALSE|644
"Koffing"|66|1860|320|339|487|300|232|182|FALSE|645
"Koffing"|70|2123|365|387|557|342|264|208|FALSE|646
"Koffing"|87|2883|499|524|756|462|359|283|FALSE|647
"Koffing"|94|3341|578|607|876|536|415|329|FALSE|648
"Koffing"|97|3451|597|627|904|554|429|340|FALSE|649
"Koffing"|98|3538|612|643|927|568|440|348|FALSE|650
"Lapras"|3|588|143|93|88|93|105|66|FALSE|651
"Lapras"|5|618|150|98|93|98|110|69|FALSE|652
"Lapras"|21|861|211|136|129|136|151|98|FALSE|653
"Lapras"|28|983|240|156|148|156|173|110|FALSE|654
"Lapras"|35|1149|279|183|172|183|203|129|FALSE|655
"Lapras"|39|1245|303|198|187|198|220|139|FALSE|656
"Lapras"|71|2788|682|442|419|442|493|310|FALSE|657
"Lapras"|80|3462|850|548|520|548|612|384|FALSE|658
"Lapras"|92|5016|1229|794|754|794|887|558|FALSE|659
"Lapras"|98|5794|1418|918|871|918|1025|644|FALSE|660
"Lickitung"|6|436|103|63|84|68|84|34|FALSE|661
"Lickitung"|12|536|127|78|103|83|103|42|FALSE|662
"Lickitung"|13|541|128|79|104|84|104|42|FALSE|663
"Lickitung"|28|817|195|119|155|129|155|64|FALSE|664
"Lickitung"|31|892|213|130|169|141|169|70|FALSE|665
"Lickitung"|36|982|236|143|185|155|185|78|FALSE|666
"Lickitung"|37|1020|245|149|192|161|192|81|FALSE|667
"Lickitung"|59|1777|427|259|335|281|335|140|FALSE|668
"Lickitung"|81|2936|702|429|557|460|557|231|FALSE|669
"Lickitung"|95|4347|1040|635|823|684|823|342|FALSE|670
"Machamp"|10|668|125|169|105|85|112|72|FALSE|671
"Machamp"|15|769|144|196|120|98|128|83|FALSE|672
"Machamp"|29|1066|199|272|168|135|176|116|FALSE|673
"Machamp"|39|1331|253|338|209|167|220|144|FALSE|674
"Machamp"|64|2436|465|619|381|306|403|262|FALSE|675
"Machamp"|74|3349|641|849|525|421|552|361|FALSE|676
"Machamp"|90|5554|1063|1409|869|700|915|598|FALSE|677
"Machamp"|91|5783|1107|1467|905|729|952|623|FALSE|678
"Machamp"|97|6951|1330|1764|1087|877|1144|749|FALSE|679
"Machamp"|99|7350|1406|1865|1149|928|1210|792|FALSE|680
"Machoke"|1|405|80|100|70|50|60|45|FALSE|681
"Machoke"|13|550|126|131|92|65|78|58|FALSE|682
"Machoke"|16|590|136|141|98|69|84|62|FALSE|683
"Machoke"|21|632|150|150|105|73|88|66|FALSE|684
"Machoke"|48|1150|280|270|188|130|164|118|FALSE|685
"Machoke"|60|1551|378|363|254|175|223|158|FALSE|686
"Machoke"|77|2713|660|637|445|306|388|277|FALSE|687
"Machoke"|86|3223|783|757|528|364|462|329|FALSE|688
"Machoke"|89|3567|867|838|584|403|511|364|FALSE|689
"Machoke"|97|4276|1039|1005|698|484|614|436|FALSE|690
"Machop"|3|317|73|83|53|36|36|36|FALSE|691
"Machop"|9|358|87|93|58|40|40|40|FALSE|692
"Machop"|20|444|114|115|71|48|48|48|FALSE|693
"Machop"|23|483|125|126|76|52|52|52|FALSE|694
"Machop"|25|519|134|135|82|56|56|56|FALSE|695
"Machop"|31|624|161|162|100|67|67|67|FALSE|696
"Machop"|61|1196|324|307|190|125|125|125|FALSE|697
"Machop"|74|1782|482|456|283|187|187|187|FALSE|698
"Machop"|80|2014|548|514|319|211|211|211|FALSE|699
"Machop"|86|2297|624|587|363|241|241|241|FALSE|700
"Magikarp"|13|277|53|10|69|17|26|102|FALSE|701
"Magikarp"|16|302|62|10|74|18|28|110|FALSE|702
"Magikarp"|21|334|70|10|82|18|32|122|FALSE|703
"Magikarp"|31|437|96|10|105|24|42|160|FALSE|704
"Magikarp"|43|620|146|10|148|32|60|224|FALSE|705
"Magikarp"|53|792|195|10|186|42|75|284|FALSE|706
"Magikarp"|64|1042|258|10|245|54|101|374|FALSE|707
"Magikarp"|71|1224|304|10|287|63|120|440|FALSE|708
"Magikarp"|81|1543|385|10|362|81|151|554|FALSE|709
"Magikarp"|84|1656|413|10|389|87|162|595|FALSE|710
"Magmar"|6|554|78|105|63|111|94|103|FALSE|711
"Magmar"|20|834|125|157|94|164|140|154|FALSE|712
"Magmar"|41|1382|209|260|155|272|232|254|FALSE|713
"Magmar"|63|2439|374|457|273|478|407|450|FALSE|714
"Magmar"|65|2581|396|484|289|506|430|476|FALSE|715
"Magmar"|67|2738|420|513|307|537|456|505|FALSE|716
"Magmar"|71|2938|455|550|329|575|488|541|FALSE|717
"Magmar"|84|4091|633|766|459|801|681|751|FALSE|718
"Magmar"|93|5150|797|964|578|1008|857|946|FALSE|719
"Magmar"|96|5411|838|1013|607|1059|900|994|FALSE|720
"Magnemite"|6|376|38|39|78|108|62|51|FALSE|721
"Magnemite"|14|472|58|47|96|132|77|62|FALSE|722
"Magnemite"|27|658|94|64|131|180|104|85|FALSE|723
"Magnemite"|34|706|114|67|137|189|109|90|FALSE|724
"Magnemite"|52|1105|185|104|215|292|170|139|FALSE|725
"Magnemite"|61|1482|246|140|290|392|227|187|FALSE|726
"Magnemite"|68|1763|293|167|344|466|271|222|FALSE|727
"Magnemite"|76|2126|351|202|416|562|326|269|FALSE|728
"Magnemite"|84|2649|437|253|519|699|406|335|FALSE|729
"Magnemite"|94|3282|545|312|643|865|503|414|FALSE|730
"Magneton"|7|542|63|69|109|139|81|81|FALSE|731
"Magneton"|10|607|71|78|122|156|90|90|FALSE|732
"Magneton"|12|648|76|83|130|167|96|96|FALSE|733
"Magneton"|15|700|87|89|139|179|103|103|FALSE|734
"Magneton"|40|1451|182|184|284|365|218|218|FALSE|735
"Magneton"|43|1627|204|207|319|409|244|244|FALSE|736
"Magneton"|61|2571|328|326|502|645|385|385|FALSE|737
"Magneton"|65|2926|374|371|571|734|438|438|FALSE|738
"Magneton"|88|4974|646|629|970|1245|742|742|FALSE|739
"Magneton"|98|6305|823|795|1229|1578|940|940|FALSE|740
"Mankey"|5|342|49|88|39|39|50|77|FALSE|741
"Mankey"|9|400|57|103|46|46|59|89|FALSE|742
"Mankey"|12|420|60|107|49|49|62|93|FALSE|743
"Mankey"|31|631|95|156|76|76|92|136|FALSE|744
"Mankey"|33|669|105|165|80|80|96|143|FALSE|745
"Mankey"|49|1022|169|249|121|121|145|217|FALSE|746
"Mankey"|53|1130|187|275|134|134|161|239|FALSE|747
"Mankey"|66|1465|251|355|173|173|206|307|FALSE|748
"Mankey"|67|1487|255|360|176|176|209|311|FALSE|749
"Mankey"|83|2098|370|508|245|245|294|436|FALSE|750
"Marowak"|5|492|69|93|127|58|93|52|FALSE|751
"Marowak"|33|1060|165|198|270|123|198|106|FALSE|752
"Marowak"|39|1229|191|229|314|143|229|123|FALSE|753
"Marowak"|43|1378|214|258|351|160|258|137|FALSE|754
"Marowak"|51|1726|267|324|439|200|324|172|FALSE|755
"Marowak"|57|1843|289|344|468|214|344|184|FALSE|756
"Marowak"|62|2260|354|422|574|262|422|226|FALSE|757
"Marowak"|70|2649|416|494|672|307|494|266|FALSE|758
"Marowak"|82|3542|557|661|897|409|661|357|FALSE|759
"Marowak"|88|4040|636|754|1022|467|754|407|FALSE|760
"Meowth"|7|354|49|54|44|49|49|109|FALSE|761
"Meowth"|10|389|54|59|48|54|54|120|FALSE|762
"Meowth"|11|402|56|61|49|56|56|124|FALSE|763
"Meowth"|12|416|58|63|51|58|58|128|FALSE|764
"Meowth"|13|430|60|65|53|60|60|132|FALSE|765
"Meowth"|34|714|115|104|85|97|97|216|FALSE|766
"Meowth"|46|1017|178|145|119|135|135|305|FALSE|767
"Meowth"|50|1085|190|155|127|144|144|325|FALSE|768
"Meowth"|88|2824|492|404|331|376|376|845|FALSE|769
"Meowth"|96|3372|592|482|394|448|448|1008|FALSE|770
"Metapod"|17|310|96|27|75|35|35|42|FALSE|771
"Metapod"|24|381|126|32|90|41|41|51|FALSE|772
"Metapod"|25|383|127|32|91|41|41|51|FALSE|773
"Metapod"|28|405|138|33|95|43|43|53|FALSE|774
"Metapod"|45|604|207|48|142|65|65|77|FALSE|775
"Metapod"|79|1364|472|109|315|148|148|172|FALSE|776
"Metapod"|83|1510|522|121|348|164|164|191|FALSE|777
"Metapod"|87|1621|560|130|374|176|176|205|FALSE|778
"Metapod"|91|1785|616|143|412|194|194|226|FALSE|779
"Metapod"|92|1793|618|144|414|195|195|227|FALSE|780
"Mew"|16|813|148|133|133|133|133|133|FALSE|781
"Mew"|31|1188|218|194|194|194|194|194|FALSE|782
"Mew"|32|1230|225|201|201|201|201|201|FALSE|783
"Mew"|38|1383|253|226|226|226|226|226|FALSE|784
"Mew"|49|1779|329|290|290|290|290|290|FALSE|785
"Mew"|54|2056|381|335|335|335|335|335|FALSE|786
"Mew"|76|3410|640|554|554|554|554|554|FALSE|787
"Mew"|84|4431|831|720|720|720|720|720|FALSE|788
"Mew"|97|6556|1231|1065|1065|1065|1065|1065|FALSE|789
"Mew"|98|6623|1243|1076|1076|1076|1076|1076|FALSE|790
"Moltres"|3|618|96|107|96|133|90|96|TRUE|791
"Moltres"|4|643|100|111|100|138|94|100|TRUE|792
"Moltres"|8|686|107|118|107|147|100|107|TRUE|793
"Moltres"|22|896|149|152|138|189|130|138|TRUE|794
"Moltres"|40|1491|260|253|226|311|215|226|TRUE|795
"Moltres"|49|1859|326|316|282|387|266|282|TRUE|796
"Moltres"|68|3189|561|539|485|662|457|485|TRUE|797
"Moltres"|70|3341|588|565|508|693|479|508|TRUE|798
"Moltres"|84|4876|856|825|742|1013|698|742|TRUE|799
"Moltres"|89|5781|1014|978|880|1201|828|880|TRUE|800
"Mr. Mime"|7|515|51|51|72|110|132|99|FALSE|801
"Mr. Mime"|32|991|119|94|137|208|248|185|FALSE|802
"Mr. Mime"|51|1647|199|154|227|346|412|309|FALSE|803
"Mr. Mime"|54|1818|220|170|251|382|454|341|FALSE|804
"Mr. Mime"|61|2192|265|204|304|459|549|411|FALSE|805
"Mr. Mime"|85|3790|460|352|525|793|950|710|FALSE|806
"Mr. Mime"|87|3967|481|368|550|830|995|743|FALSE|807
"Mr. Mime"|88|4015|487|372|557|840|1007|752|FALSE|808
"Mr. Mime"|91|4278|519|397|594|894|1072|802|FALSE|809
"Mr. Mime"|93|4409|535|409|612|922|1104|827|FALSE|810
"Muk"|8|614|134|126|91|80|121|62|FALSE|811
"Muk"|13|697|152|142|104|90|137|72|FALSE|812
"Muk"|23|873|192|178|131|113|170|89|FALSE|813
"Muk"|28|922|203|188|139|119|180|93|FALSE|814
"Muk"|31|988|217|202|149|128|192|100|FALSE|815
"Muk"|39|1179|259|241|178|153|228|120|FALSE|816
"Muk"|42|1221|268|250|184|158|236|125|FALSE|817
"Muk"|54|1788|394|366|269|231|346|182|FALSE|818
"Muk"|87|4035|890|826|609|516|784|410|FALSE|819
"Muk"|90|4304|949|881|650|551|836|437|FALSE|820
"Nidoking"|10|652|110|129|99|109|96|109|FALSE|821
"Nidoking"|23|907|161|178|137|149|133|149|FALSE|822
"Nidoking"|26|938|166|184|142|154|138|154|FALSE|823
"Nidoking"|28|998|176|196|152|164|146|164|FALSE|824
"Nidoking"|31|1061|187|208|162|174|156|174|FALSE|825
"Nidoking"|35|1234|217|242|188|203|181|203|FALSE|826
"Nidoking"|52|1830|326|356|276|302|268|302|FALSE|827
"Nidoking"|57|2080|371|405|314|343|304|343|FALSE|828
"Nidoking"|69|2838|508|552|429|468|413|468|FALSE|829
"Nidoking"|72|3057|548|595|461|504|445|504|FALSE|830
"Nidoqueen"|10|626|112|115|107|93|105|94|FALSE|831
"Nidoqueen"|29|1028|193|188|173|151|171|152|FALSE|832
"Nidoqueen"|34|1156|217|212|194|170|192|171|FALSE|833
"Nidoqueen"|36|1214|229|222|204|178|201|180|FALSE|834
"Nidoqueen"|40|1304|246|238|219|191|216|194|FALSE|835
"Nidoqueen"|43|1414|266|258|238|207|235|210|FALSE|836
"Nidoqueen"|63|2262|428|414|379|331|375|335|FALSE|837
"Nidoqueen"|73|2611|494|477|437|383|433|387|FALSE|838
"Nidoqueen"|77|2891|546|528|484|425|479|429|FALSE|839
"Nidoqueen"|90|3555|672|648|594|524|589|528|FALSE|840
"Nidorana"|10|335|82|54|59|46|46|48|FALSE|841
"Nidorana"|28|517|137|78|90|70|70|72|FALSE|842
"Nidorana"|33|614|162|94|107|83|83|85|FALSE|843
"Nidorana"|50|993|195|203|137|137|137|184|FALSE|844
"Nidorana"|55|1047|277|160|179|143|143|145|FALSE|845
"Nidorana"|62|1319|259|270|182|182|182|244|FALSE|846
"Nidorana"|72|1800|476|277|307|246|246|248|FALSE|847
"Nidorana"|74|1953|516|301|333|267|267|269|FALSE|848
"Nidorana"|85|2582|681|397|439|354|354|357|FALSE|849
"Nidorana"|86|2355|474|482|321|321|321|436|FALSE|850
"Nidorina"|4|390|75|66|71|59|59|60|FALSE|851
"Nidorina"|10|438|88|74|79|65|65|67|FALSE|852
"Nidorina"|13|471|99|79|84|69|69|71|FALSE|853
"Nidorina"|16|494|112|81|86|71|71|73|FALSE|854
"Nidorina"|23|593|138|96|102|85|85|87|FALSE|855
"Nidorina"|26|635|148|103|109|91|91|93|FALSE|856
"Nidorina"|39|879|202|141|150|128|128|130|FALSE|857
"Nidorina"|69|1970|461|316|333|286|286|288|FALSE|858
"Nidorina"|73|2178|509|349|369|316|316|319|FALSE|859
"Nidorina"|93|3437|805|551|583|498|498|502|FALSE|860
"Nidorino"|24|655|122|125|100|98|98|112|FALSE|861
"Nidorino"|35|869|175|163|130|127|127|147|FALSE|862
"Nidorino"|50|1200|248|223|177|174|174|204|FALSE|863
"Nidorino"|51|1240|256|230|183|180|180|211|FALSE|864
"Nidorino"|54|1373|283|254|203|200|200|233|FALSE|865
"Nidorino"|55|1394|287|258|206|203|203|237|FALSE|866
"Nidorino"|72|2055|424|380|302|299|299|351|FALSE|867
"Nidorino"|76|2209|456|409|324|321|321|378|FALSE|868
"Nidorino"|94|3484|721|644|515|504|504|596|FALSE|869
"Nidorino"|96|3540|733|654|523|512|512|606|FALSE|870
"Ninetales"|1|505|73|76|75|81|100|100|FALSE|871
"Ninetales"|7|583|88|87|86|92|115|115|FALSE|872
"Ninetales"|21|781|129|115|113|122|151|151|FALSE|873
"Ninetales"|34|1058|175|156|152|165|205|205|FALSE|874
"Ninetales"|35|1069|177|158|153|167|207|207|FALSE|875
"Ninetales"|45|1339|222|198|191|210|259|259|FALSE|876
"Ninetales"|52|1653|273|245|236|259|320|320|FALSE|877
"Ninetales"|53|1667|275|247|238|261|323|323|FALSE|878
"Ninetales"|59|2002|331|297|287|313|387|387|FALSE|879
"Ninetales"|95|4360|731|645|620|678|843|843|FALSE|880
"Oddish"|4|346|49|54|59|81|71|32|FALSE|881
"Oddish"|12|425|60|67|72|98|87|41|FALSE|882
"Oddish"|17|467|65|74|80|107|96|45|FALSE|883
"Oddish"|21|533|74|84|92|123|109|51|FALSE|884
"Oddish"|26|605|89|95|103|139|122|57|FALSE|885
"Oddish"|35|745|115|116|127|169|148|70|FALSE|886
"Oddish"|38|780|120|121|133|177|155|74|FALSE|887
"Oddish"|53|1106|171|172|187|251|221|104|FALSE|888
"Oddish"|73|1978|306|307|335|449|397|184|FALSE|889
"Oddish"|94|3610|564|560|608|820|724|334|FALSE|890
"Omanyte"|3|371|37|42|104|94|57|37|FALSE|891
"Omanyte"|20|560|79|60|150|133|83|55|FALSE|892
"Omanyte"|21|587|83|63|157|139|87|58|FALSE|893
"Omanyte"|28|721|107|77|191|169|106|71|FALSE|894
"Omanyte"|37|904|139|96|238|210|132|89|FALSE|895
"Omanyte"|56|1356|218|142|355|311|197|133|FALSE|896
"Omanyte"|58|1432|230|150|374|329|208|141|FALSE|897
"Omanyte"|62|1572|253|165|411|360|228|155|FALSE|898
"Omanyte"|69|1839|297|192|483|420|267|180|FALSE|899
"Omanyte"|96|3417|551|356|898|782|494|336|FALSE|900
"Omastar"|4|531|75|65|134|123|75|59|FALSE|901
"Omastar"|8|587|88|71|146|135|83|64|FALSE|902
"Omastar"|20|771|120|92|191|175|109|84|FALSE|903
"Omastar"|24|831|133|99|205|187|117|90|FALSE|904
"Omastar"|25|871|139|104|215|196|123|94|FALSE|905
"Omastar"|36|1237|197|149|305|278|176|132|FALSE|906
"Omastar"|39|1348|215|162|333|303|191|144|FALSE|907
"Omastar"|54|1975|317|238|488|444|278|210|FALSE|908
"Omastar"|82|3947|645|471|972|886|554|419|FALSE|909
"Omastar"|84|4164|680|497|1025|935|585|442|FALSE|910
"Onix"|6|428|44|50|175|33|50|76|FALSE|911
"Onix"|17|582|70|65|235|45|65|102|FALSE|912
"Onix"|27|746|96|82|300|57|82|129|FALSE|913
"Onix"|28|776|100|85|313|59|85|134|FALSE|914
"Onix"|43|1109|163|118|442|82|118|186|FALSE|915
"Onix"|47|1204|181|128|477|89|128|201|FALSE|916
"Onix"|56|1520|229|161|602|113|161|254|FALSE|917
"Onix"|76|2393|370|252|944|175|252|400|FALSE|918
"Onix"|78|2441|377|257|963|179|257|408|FALSE|919
"Onix"|84|2821|436|297|1112|207|297|472|FALSE|920
"Paras"|6|329|54|79|60|49|60|27|FALSE|921
"Paras"|7|341|56|82|62|51|62|28|FALSE|922
"Paras"|11|385|67|92|69|57|69|31|FALSE|923
"Paras"|23|532|98|126|95|77|95|41|FALSE|924
"Paras"|38|851|162|199|151|122|151|66|FALSE|925
"Paras"|51|1070|221|246|186|150|186|81|FALSE|926
"Paras"|56|1217|253|280|211|170|211|92|FALSE|927
"Paras"|57|1274|265|293|221|178|221|96|FALSE|928
"Paras"|62|1467|306|337|255|204|255|110|FALSE|929
"Paras"|97|3158|671|722|546|437|546|236|FALSE|930
"Parasect"|11|524|81|123|102|76|102|40|FALSE|931
"Parasect"|20|667|109|154|129|96|129|50|FALSE|932
"Parasect"|27|813|136|187|156|117|156|61|FALSE|933
"Parasect"|31|864|148|199|164|124|164|65|FALSE|934
"Parasect"|55|1729|295|400|328|248|328|130|FALSE|935
"Parasect"|72|2840|482|658|540|406|540|214|FALSE|936
"Parasect"|80|3626|615|841|689|518|689|274|FALSE|937
"Parasect"|82|3815|647|885|725|545|725|288|FALSE|938
"Parasect"|91|4591|779|1065|873|655|873|346|FALSE|939
"Parasect"|95|4982|846|1155|947|711|947|376|FALSE|940
"Persian"|3|467|73|74|63|68|68|121|FALSE|941
"Persian"|5|486|76|77|65|71|71|126|FALSE|942
"Persian"|14|606|95|96|79|89|89|158|FALSE|943
"Persian"|19|689|108|109|90|102|102|178|FALSE|944
"Persian"|26|828|134|131|107|122|122|212|FALSE|945
"Persian"|36|1022|170|161|132|150|150|259|FALSE|946
"Persian"|37|1054|175|166|136|155|155|267|FALSE|947
"Persian"|62|2037|338|318|259|302|302|518|FALSE|948
"Persian"|96|5453|907|849|692|810|810|1385|FALSE|949
"Persian"|97|5583|929|869|709|829|829|1418|FALSE|950
"Pidgeot"|17|795|138|135|124|116|116|166|FALSE|951
"Pidgeot"|32|1106|196|184|171|161|161|233|FALSE|952
"Pidgeot"|40|1346|242|225|209|194|194|282|FALSE|953
"Pidgeot"|49|1620|294|270|250|234|234|338|FALSE|954
"Pidgeot"|52|1762|320|294|272|254|254|368|FALSE|955
"Pidgeot"|54|1904|346|318|294|274|274|398|FALSE|956
"Pidgeot"|58|2135|389|356|330|307|307|446|FALSE|957
"Pidgeot"|59|2202|401|367|340|317|317|460|FALSE|958
"Pidgeot"|85|4080|745|676|631|589|589|850|FALSE|959
"Pidgeot"|89|4625|845|767|715|667|667|964|FALSE|960
"Pidgeotto"|11|450|90|77|68|63|63|89|FALSE|961
"Pidgeotto"|33|796|172|136|115|109|109|155|FALSE|962
"Pidgeotto"|42|1009|219|174|146|137|137|196|FALSE|963
"Pidgeotto"|47|1093|241|187|157|148|148|212|FALSE|964
"Pidgeotto"|67|1841|404|315|263|250|250|359|FALSE|965
"Pidgeotto"|74|2177|478|373|311|295|295|425|FALSE|966
"Pidgeotto"|80|2670|587|457|382|361|361|522|FALSE|967
"Pidgeotto"|84|2981|656|510|426|403|403|583|FALSE|968
"Pidgeotto"|87|3164|696|541|452|428|428|619|FALSE|969
"Pidgeotto"|88|3279|721|561|468|444|444|641|FALSE|970
"Pidgey"|6|288|51|51|46|39|39|62|FALSE|971
"Pidgey"|15|384|77|67|59|51|51|79|FALSE|972
"Pidgey"|17|408|82|71|63|54|54|84|FALSE|973
"Pidgey"|22|468|98|80|71|61|61|97|FALSE|974
"Pidgey"|46|845|176|144|126|113|113|173|FALSE|975
"Pidgey"|50|910|190|155|136|121|121|187|FALSE|976
"Pidgey"|54|954|199|163|142|127|127|196|FALSE|977
"Pidgey"|80|2000|424|342|300|263|263|408|FALSE|978
"Pidgey"|90|2440|521|417|365|320|320|497|FALSE|979
"Pidgey"|98|2868|611|489|429|378|378|583|FALSE|980
"Pikachu"|9|417|46|72|51|66|66|116|FALSE|981
"Pikachu"|14|476|56|81|58|75|75|131|FALSE|982
"Pikachu"|36|926|122|154|112|145|145|248|FALSE|983
"Pikachu"|37|940|124|156|114|147|147|252|FALSE|984
"Pikachu"|38|968|128|161|117|151|151|260|FALSE|985
"Pikachu"|57|1535|205|257|187|238|238|410|FALSE|986
"Pikachu"|59|1578|215|263|192|244|244|420|FALSE|987
"Pikachu"|72|2085|288|345|253|322|322|555|FALSE|988
"Pikachu"|82|2667|372|440|324|413|413|705|FALSE|989
"Pikachu"|96|3700|523|609|448|572|572|976|FALSE|990
"Pinsir"|21|754|121|185|145|80|101|122|FALSE|991
"Pinsir"|23|829|133|204|159|88|111|134|FALSE|992
"Pinsir"|26|883|142|218|169|93|118|143|FALSE|993
"Pinsir"|27|903|145|223|173|95|121|146|FALSE|994
"Pinsir"|32|1044|167|258|201|110|140|168|FALSE|995
"Pinsir"|45|1528|248|379|295|158|204|244|FALSE|996
"Pinsir"|49|1615|266|399|312|166|215|257|FALSE|997
"Pinsir"|65|2375|397|585|457|244|314|378|FALSE|998
"Pinsir"|80|3768|629|927|727|387|499|599|FALSE|999
"Pinsir"|84|4322|722|1063|833|444|573|687|FALSE|1000
"Poliwag"|7|354|47|60|47|47|47|106|FALSE|1001
"Poliwag"|8|363|48|62|48|48|48|109|FALSE|1002
"Poliwag"|15|455|61|77|61|61|61|134|FALSE|1003
"Poliwag"|20|535|72|90|72|72|72|157|FALSE|1004
"Poliwag"|36|845|113|142|113|113|113|251|FALSE|1005
"Poliwag"|41|954|127|161|127|127|127|285|FALSE|1006
"Poliwag"|48|1164|160|193|155|155|155|346|FALSE|1007
"Poliwag"|59|1467|211|243|193|193|193|434|FALSE|1008
"Poliwag"|60|1504|216|249|198|198|198|445|FALSE|1009
"Poliwag"|62|1565|225|259|206|206|206|463|FALSE|1010
"Poliwhirl"|2|395|67|67|67|51|51|92|FALSE|1011
"Poliwhirl"|6|453|77|77|77|59|59|104|FALSE|1012
"Poliwhirl"|8|499|85|85|85|65|65|114|FALSE|1013
"Poliwhirl"|40|1174|216|198|198|148|148|266|FALSE|1014
"Poliwhirl"|43|1223|229|206|206|153|153|276|FALSE|1015
"Poliwhirl"|58|1825|343|306|306|230|230|410|FALSE|1016
"Poliwhirl"|66|2313|435|388|388|291|291|520|FALSE|1017
"Poliwhirl"|70|2515|473|422|422|316|316|566|FALSE|1018
"Poliwhirl"|84|3395|648|567|567|426|426|761|FALSE|1019
"Poliwhirl"|86|3569|681|596|596|448|448|800|FALSE|1020
"Poliwrath"|20|784|149|143|143|106|137|106|FALSE|1021
"Poliwrath"|28|958|182|174|174|130|168|130|FALSE|1022
"Poliwrath"|41|1431|271|261|261|194|250|194|FALSE|1023
"Poliwrath"|56|2288|434|416|416|310|402|310|FALSE|1024
"Poliwrath"|60|2596|494|472|472|351|456|351|FALSE|1025
"Poliwrath"|64|2697|517|490|490|364|472|364|FALSE|1026
"Poliwrath"|71|3015|579|548|548|406|528|406|FALSE|1027
"Poliwrath"|79|3596|691|654|654|484|629|484|FALSE|1028
"Poliwrath"|83|3869|744|704|704|520|677|520|FALSE|1029
"Poliwrath"|86|4288|824|780|780|577|750|577|FALSE|1030
"Ponyta"|8|483|60|100|65|76|76|106|FALSE|1031
"Ponyta"|13|542|76|110|71|84|84|117|FALSE|1032
"Ponyta"|16|570|80|116|75|88|88|123|FALSE|1033
"Ponyta"|22|669|99|134|87|103|103|143|FALSE|1034
"Ponyta"|36|832|133|164|108|127|127|173|FALSE|1035
"Ponyta"|62|1480|242|290|194|225|225|304|FALSE|1036
"Ponyta"|67|1628|266|319|214|247|247|335|FALSE|1037
"Ponyta"|74|1890|313|369|248|286|286|388|FALSE|1038
"Ponyta"|80|2147|361|418|281|324|324|439|FALSE|1039
"Ponyta"|82|2274|382|443|298|343|343|465|FALSE|1040
"Porygon"|30|868|143|130|153|186|169|87|FALSE|1041
"Porygon"|31|895|147|134|158|192|174|90|FALSE|1042
"Porygon"|37|1030|170|154|182|220|200|104|FALSE|1043
"Porygon"|41|1135|188|169|201|242|220|115|FALSE|1044
"Porygon"|42|1183|196|176|210|252|229|120|FALSE|1045
"Porygon"|46|1267|213|188|224|269|245|128|FALSE|1046
"Porygon"|55|1503|257|220|267|319|290|150|FALSE|1047
"Porygon"|61|1752|304|256|310|370|337|175|FALSE|1048
"Porygon"|62|1781|309|260|315|376|343|178|FALSE|1049
"Porygon"|86|3097|536|452|544|655|599|311|FALSE|1050
"Primeape"|10|603|85|141|79|79|92|127|FALSE|1051
"Primeape"|16|715|101|166|95|95|108|150|FALSE|1052
"Primeape"|20|763|113|176|100|100|115|159|FALSE|1053
"Primeape"|21|771|114|178|101|101|116|161|FALSE|1054
"Primeape"|52|1739|258|401|226|226|264|364|FALSE|1055
"Primeape"|56|1894|280|436|246|246|289|397|FALSE|1056
"Primeape"|63|2126|318|489|275|275|324|445|FALSE|1057
"Primeape"|66|2309|345|531|299|299|352|483|FALSE|1058
"Primeape"|81|3437|515|791|444|444|524|719|FALSE|1059
"Primeape"|98|5763|863|1329|744|744|880|1203|FALSE|1060
"Psyduck"|2|332|52|54|50|67|52|57|FALSE|1061
"Psyduck"|10|424|71|68|62|85|66|72|FALSE|1062
"Psyduck"|15|484|85|77|70|96|75|81|FALSE|1063
"Psyduck"|18|534|94|86|77|105|82|90|FALSE|1064
"Psyduck"|34|800|147|128|114|154|123|134|FALSE|1065
"Psyduck"|38|893|168|142|126|172|136|149|FALSE|1066
"Psyduck"|63|1674|314|264|240|323|256|277|FALSE|1067
"Psyduck"|71|2142|402|339|308|413|328|352|FALSE|1068
"Psyduck"|72|2220|417|351|319|428|340|365|FALSE|1069
"Psyduck"|88|3381|641|533|484|651|518|554|FALSE|1070
"Rapidash"|9|599|91|117|82|93|93|123|FALSE|1071
"Rapidash"|30|946|167|179|124|143|143|190|FALSE|1072
"Rapidash"|34|1044|184|198|137|158|158|209|FALSE|1073
"Rapidash"|46|1413|250|267|184|215|215|282|FALSE|1074
"Rapidash"|53|1612|294|302|209|244|244|319|FALSE|1075
"Rapidash"|55|1647|300|309|214|249|249|326|FALSE|1076
"Rapidash"|76|3079|561|575|401|465|465|612|FALSE|1077
"Rapidash"|78|3311|603|619|431|500|500|658|FALSE|1078
"Rapidash"|84|3623|661|677|471|547|547|720|FALSE|1079
"Rapidash"|90|4076|744|761|531|615|615|810|FALSE|1080
"Raticate"|4|465|62|91|67|57|79|109|FALSE|1081
"Raticate"|9|518|70|101|75|64|87|121|FALSE|1082
"Raticate"|43|1326|228|247|183|159|212|297|FALSE|1083
"Raticate"|47|1478|255|275|204|177|236|331|FALSE|1084
"Raticate"|52|1655|286|307|228|199|263|372|FALSE|1085
"Raticate"|67|2452|424|456|339|295|387|551|FALSE|1086
"Raticate"|74|3043|526|567|421|366|480|683|FALSE|1087
"Raticate"|78|3380|584|630|468|407|533|758|FALSE|1088
"Raticate"|88|4276|745|796|591|514|672|958|FALSE|1089
"Raticate"|94|4801|836|894|664|576|755|1076|FALSE|1090
"Rattata"|4|274|37|59|37|27|37|77|FALSE|1091
"Rattata"|8|305|42|65|42|29|42|85|FALSE|1092
"Rattata"|15|402|56|85|56|37|56|112|FALSE|1093
"Rattata"|30|552|86|115|75|51|75|150|FALSE|1094
"Rattata"|39|681|111|140|92|62|92|184|FALSE|1095
"Rattata"|52|908|158|185|121|81|121|242|FALSE|1096
"Rattata"|60|1130|196|230|150|102|150|302|FALSE|1097
"Rattata"|63|1222|213|249|162|110|162|326|FALSE|1098
"Rattata"|91|2617|468|529|343|235|343|699|FALSE|1099
"Rattata"|97|3098|554|626|406|278|406|828|FALSE|1100
"Rhydon"|33|1214|279|327|295|109|109|95|FALSE|1101
"Rhydon"|36|1262|290|341|306|113|113|99|FALSE|1102
"Rhydon"|40|1367|314|370|330|123|123|107|FALSE|1103
"Rhydon"|41|1432|329|387|346|129|129|112|FALSE|1104
"Rhydon"|53|1955|450|527|474|175|175|154|FALSE|1105
"Rhydon"|59|2147|494|578|520|193|193|169|FALSE|1106
"Rhydon"|81|3492|801|938|845|316|316|276|FALSE|1107
"Rhydon"|91|4441|1019|1193|1075|402|402|350|FALSE|1108
"Rhydon"|93|4744|1088|1275|1149|429|429|374|FALSE|1109
"Rhydon"|95|4984|1143|1339|1207|451|451|393|FALSE|1110
"Rhyhorn"|8|423|96|105|117|38|38|29|FALSE|1111
"Rhyhorn"|10|447|102|111|123|40|40|31|FALSE|1112
"Rhyhorn"|16|512|118|128|140|45|45|36|FALSE|1113
"Rhyhorn"|19|544|130|135|147|47|47|38|FALSE|1114
"Rhyhorn"|23|610|145|151|165|53|53|43|FALSE|1115
"Rhyhorn"|72|1717|410|422|467|148|148|122|FALSE|1116
"Rhyhorn"|77|1928|461|474|524|166|166|137|FALSE|1117
"Rhyhorn"|82|2121|507|521|575|183|183|152|FALSE|1118
"Rhyhorn"|87|2449|586|601|665|211|211|175|FALSE|1119
"Rhyhorn"|90|2588|620|636|702|223|223|184|FALSE|1120
"Sandshrew"|6|353|59|88|100|24|34|48|FALSE|1121
"Sandshrew"|7|370|62|92|105|25|36|50|FALSE|1122
"Sandshrew"|8|386|65|96|109|26|38|52|FALSE|1123
"Sandshrew"|16|465|83|115|130|31|44|62|FALSE|1124
"Sandshrew"|28|641|119|158|179|42|60|83|FALSE|1125
"Sandshrew"|45|956|187|230|266|60|90|123|FALSE|1126
"Sandshrew"|47|998|195|240|278|63|94|128|FALSE|1127
"Sandshrew"|51|1129|221|271|314|71|107|145|FALSE|1128
"Sandshrew"|82|2264|449|538|624|140|220|293|FALSE|1129
"Sandshrew"|99|3194|633|759|880|197|311|414|FALSE|1130
"Sandslash"|7|515|88|115|125|51|63|73|FALSE|1131
"Sandslash"|10|571|98|128|138|57|70|80|FALSE|1132
"Sandslash"|15|632|110|141|152|63|78|88|FALSE|1133
"Sandslash"|30|912|166|201|216|92|112|125|FALSE|1134
"Sandslash"|35|1020|190|224|241|101|125|139|FALSE|1135
"Sandslash"|36|1056|197|232|249|105|129|144|FALSE|1136
"Sandslash"|43|1256|235|277|296|123|152|173|FALSE|1137
"Sandslash"|49|1510|287|332|356|147|181|207|FALSE|1138
"Sandslash"|83|3183|619|697|749|308|376|434|FALSE|1139
"Sandslash"|92|4057|788|887|956|393|479|554|FALSE|1140
"Scyther"|20|809|124|176|126|89|126|168|FALSE|1141
"Scyther"|21|823|126|179|128|91|128|171|FALSE|1142
"Scyther"|42|1491|239|324|227|163|227|311|FALSE|1143
"Scyther"|47|1709|274|371|261|186|261|356|FALSE|1144
"Scyther"|54|2163|346|469|331|235|331|451|FALSE|1145
"Scyther"|70|2936|468|636|450|319|450|613|FALSE|1146
"Scyther"|77|3580|570|776|549|389|549|747|FALSE|1147
"Scyther"|87|4804|765|1042|737|522|737|1001|FALSE|1148
"Scyther"|88|4810|766|1043|738|523|738|1002|FALSE|1149
"Scyther"|96|5755|922|1247|882|625|882|1197|FALSE|1150
"Seadra"|6|503|62|75|108|108|52|98|FALSE|1151
"Seadra"|16|631|86|90|134|134|64|123|FALSE|1152
"Seadra"|24|751|111|105|158|158|73|146|FALSE|1153
"Seadra"|36|963|146|133|202|202|93|187|FALSE|1154
"Seadra"|56|1607|246|223|335|335|156|312|FALSE|1155
"Seadra"|59|1714|263|238|357|357|166|333|FALSE|1156
"Seadra"|70|2186|336|305|454|454|210|427|FALSE|1157
"Seadra"|72|2242|348|312|465|465|215|437|FALSE|1158
"Seadra"|87|3380|524|469|701|701|326|659|FALSE|1159
"Seadra"|92|3801|594|527|787|787|366|740|FALSE|1160
"Seaking"|11|599|107|123|85|85|107|92|FALSE|1161
"Seaking"|40|1139|214|232|160|160|200|173|FALSE|1162
"Seaking"|42|1204|226|246|169|169|211|183|FALSE|1163
"Seaking"|45|1299|244|265|182|182|228|198|FALSE|1164
"Seaking"|61|1851|350|375|260|260|324|282|FALSE|1165
"Seaking"|67|2146|410|434|300|300|375|327|FALSE|1166
"Seaking"|73|2477|474|501|346|346|432|378|FALSE|1167
"Seaking"|77|2691|515|545|375|375|470|411|FALSE|1168
"Seaking"|87|3501|670|709|487|487|613|535|FALSE|1169
"Seaking"|98|4738|907|959|658|658|830|726|FALSE|1170
"Seel"|8|384|90|51|61|51|80|51|FALSE|1171
"Seel"|9|392|92|52|62|52|82|52|FALSE|1172
"Seel"|15|471|116|62|72|62|97|62|FALSE|1173
"Seel"|18|514|126|68|78|68|106|68|FALSE|1174
"Seel"|25|632|154|84|96|84|130|84|FALSE|1175
"Seel"|41|832|211|109|125|109|169|109|FALSE|1176
"Seel"|78|2243|565|294|338|294|458|294|FALSE|1177
"Seel"|87|2688|677|352|405|352|550|352|FALSE|1178
"Seel"|89|2860|721|374|431|374|586|374|FALSE|1179
"Seel"|97|3748|945|490|565|490|768|490|FALSE|1180
"Shellder"|3|329|37|69|106|48|26|43|FALSE|1181
"Shellder"|9|397|50|82|126|57|31|51|FALSE|1182
"Shellder"|13|433|54|89|138|62|34|56|FALSE|1183
"Shellder"|26|618|83|125|197|87|48|78|FALSE|1184
"Shellder"|75|1977|316|381|615|275|151|239|FALSE|1185
"Shellder"|76|1995|319|384|621|278|152|241|FALSE|1186
"Shellder"|80|2164|346|417|673|302|166|260|FALSE|1187
"Shellder"|81|2226|356|429|692|311|171|267|FALSE|1188
"Shellder"|83|2371|379|457|737|331|183|284|FALSE|1189
"Shellder"|90|2895|464|558|900|404|223|346|FALSE|1190
"Slowbro"|16|717|139|110|160|147|116|45|FALSE|1191
"Slowbro"|23|853|171|130|187|174|138|53|FALSE|1192
"Slowbro"|46|1666|333|255|367|339|269|103|FALSE|1193
"Slowbro"|50|1770|362|270|387|358|284|109|FALSE|1194
"Slowbro"|57|2131|436|327|465|430|343|130|FALSE|1195
"Slowbro"|60|2269|464|348|495|458|366|138|FALSE|1196
"Slowbro"|69|2723|557|417|595|550|438|166|FALSE|1197
"Slowbro"|84|4170|852|638|914|841|671|254|FALSE|1198
"Slowbro"|91|4977|1018|761|1093|1003|800|302|FALSE|1199
"Slowbro"|98|5975|1222|913|1312|1205|961|362|FALSE|1200
"Slowpoke"|13|421|121|87|87|54|54|18|FALSE|1201
"Slowpoke"|15|437|125|91|91|56|56|18|FALSE|1202
"Slowpoke"|42|935|280|191|191|117|117|39|FALSE|1203
"Slowpoke"|52|1174|352|241|241|146|146|48|FALSE|1204
"Slowpoke"|53|1231|369|253|253|153|153|50|FALSE|1205
"Slowpoke"|60|1446|434|298|298|179|179|58|FALSE|1206
"Slowpoke"|66|1623|487|336|336|200|200|64|FALSE|1207
"Slowpoke"|78|2215|664|458|458|273|273|89|FALSE|1208
"Slowpoke"|86|2729|818|564|564|337|337|109|FALSE|1209
"Slowpoke"|93|3462|1037|716|716|427|427|139|FALSE|1210
"Snorlax"|10|671|200|136|82|82|136|35|FALSE|1211
"Snorlax"|15|748|226|151|91|91|151|38|FALSE|1212
"Snorlax"|35|1257|389|251|150|150|251|66|FALSE|1213
"Snorlax"|51|1915|595|382|228|228|382|100|FALSE|1214
"Snorlax"|53|1979|615|395|235|235|395|104|FALSE|1215
"Snorlax"|54|2022|628|404|240|240|404|106|FALSE|1216
"Snorlax"|59|2235|694|447|265|265|447|117|FALSE|1217
"Snorlax"|61|2359|732|472|280|280|472|123|FALSE|1218
"Snorlax"|74|3138|974|628|372|372|628|164|FALSE|1219
"Snorlax"|77|3449|1071|691|408|408|691|180|FALSE|1220
"Spearow"|23|486|95|105|53|54|54|125|FALSE|1221
"Spearow"|36|652|133|138|71|72|72|166|FALSE|1222
"Spearow"|39|738|151|157|80|81|81|188|FALSE|1223
"Spearow"|41|793|162|169|86|87|87|202|FALSE|1224
"Spearow"|56|1118|228|240|121|122|122|285|FALSE|1225
"Spearow"|66|1520|309|324|165|167|167|388|FALSE|1226
"Spearow"|67|1583|322|337|172|174|174|404|FALSE|1227
"Spearow"|82|2376|489|502|258|261|261|605|FALSE|1228
"Spearow"|89|2750|570|580|298|301|301|700|FALSE|1229
"Spearow"|97|3347|693|707|363|366|366|852|FALSE|1230
"Squirtle"|4|341|52|51|70|53|69|46|FALSE|1231
"Squirtle"|12|425|68|62|88|64|87|56|FALSE|1232
"Squirtle"|21|558|94|80|114|83|113|74|FALSE|1233
"Squirtle"|24|613|103|88|125|91|124|82|FALSE|1234
"Squirtle"|47|1135|198|161|230|166|229|151|FALSE|1235
"Squirtle"|48|1190|208|169|241|174|240|158|FALSE|1236
"Squirtle"|51|1332|233|189|270|194|269|177|FALSE|1237
"Squirtle"|68|2219|389|315|449|323|448|295|FALSE|1238
"Squirtle"|75|2604|456|369|527|379|526|347|FALSE|1239
"Squirtle"|81|2977|520|422|603|433|601|398|FALSE|1240
"Starmie"|16|725|107|99|115|134|115|155|FALSE|1241
"Starmie"|19|811|119|110|129|150|129|174|FALSE|1242
"Starmie"|26|931|136|126|148|173|148|200|FALSE|1243
"Starmie"|27|938|137|127|149|174|149|202|FALSE|1244
"Starmie"|29|981|143|133|156|182|156|211|FALSE|1245
"Starmie"|32|1094|160|148|174|203|174|235|FALSE|1246
"Starmie"|68|2666|398|363|421|490|421|573|FALSE|1247
"Starmie"|78|3289|490|448|520|605|520|706|FALSE|1248
"Starmie"|82|3542|527|483|560|651|560|761|FALSE|1249
"Starmie"|95|5178|768|707|819|952|819|1113|FALSE|1250
"Staryu"|9|406|59|49|62|79|62|95|FALSE|1251
"Staryu"|15|459|71|55|69|89|69|106|FALSE|1252
"Staryu"|20|522|81|61|79|101|79|121|FALSE|1253
"Staryu"|23|578|90|67|88|112|88|133|FALSE|1254
"Staryu"|35|776|127|87|117|150|117|178|FALSE|1255
"Staryu"|52|1236|212|137|184|237|184|282|FALSE|1256
"Staryu"|65|1764|304|195|262|337|262|404|FALSE|1257
"Staryu"|85|2812|488|313|416|534|416|645|FALSE|1258
"Staryu"|87|2918|506|325|432|554|432|669|FALSE|1259
"Staryu"|97|3691|641|413|546|700|546|845|FALSE|1260
"Tangela"|22|747|125|93|194|168|65|102|FALSE|1261
"Tangela"|23|762|128|95|198|171|66|104|FALSE|1262
"Tangela"|37|1081|183|133|281|242|94|148|FALSE|1263
"Tangela"|44|1257|212|154|327|281|110|173|FALSE|1264
"Tangela"|47|1347|231|164|350|300|117|185|FALSE|1265
"Tangela"|62|2059|352|249|532|461|181|284|FALSE|1266
"Tangela"|71|2710|463|329|700|606|237|375|FALSE|1267
"Tangela"|78|3282|560|398|849|734|287|454|FALSE|1268
"Tangela"|86|3907|666|473|1012|873|341|542|FALSE|1269
"Tangela"|88|4050|690|491|1049|905|354|561|FALSE|1270
"Tauros"|4|526|80|107|102|44|75|118|FALSE|1271
"Tauros"|9|577|93|117|111|47|81|128|FALSE|1272
"Tauros"|23|811|134|160|154|68|117|178|FALSE|1273
"Tauros"|35|1132|187|225|214|95|163|248|FALSE|1274
"Tauros"|45|1506|253|299|284|126|216|328|FALSE|1275
"Tauros"|47|1628|273|323|307|137|234|354|FALSE|1276
"Tauros"|65|2685|452|531|507|226|384|585|FALSE|1277
"Tauros"|74|3517|593|695|663|296|504|766|FALSE|1278
"Tauros"|77|3883|654|767|732|327|557|846|FALSE|1279
"Tauros"|83|4174|704|824|787|351|598|910|FALSE|1280
"Tentacool"|6|394|47|47|41|58|119|82|FALSE|1281
"Tentacool"|16|499|64|58|52|72|150|103|FALSE|1282
"Tentacool"|39|785|116|90|82|110|231|156|FALSE|1283
"Tentacool"|40|792|117|91|83|111|233|157|FALSE|1284
"Tentacool"|49|1029|154|117|109|144|301|204|FALSE|1285
"Tentacool"|51|1083|163|123|115|151|317|214|FALSE|1286
"Tentacool"|60|1467|220|167|155|206|429|290|FALSE|1287
"Tentacool"|74|2048|308|235|217|287|598|403|FALSE|1288
"Tentacool"|90|2843|434|325|300|399|828|557|FALSE|1289
"Tentacool"|99|3295|512|377|346|459|957|644|FALSE|1290
"Tentacruel"|4|550|90|74|68|85|127|106|FALSE|1291
"Tentacruel"|6|586|96|79|72|91|135|113|FALSE|1292
"Tentacruel"|19|839|138|112|103|132|192|162|FALSE|1293
"Tentacruel"|28|1043|175|140|128|163|238|199|FALSE|1294
"Tentacruel"|31|1146|192|154|140|180|261|219|FALSE|1295
"Tentacruel"|36|1314|220|177|160|207|298|252|FALSE|1296
"Tentacruel"|41|1511|252|205|184|238|342|290|FALSE|1297
"Tentacruel"|48|1792|299|242|219|282|407|343|FALSE|1298
"Tentacruel"|49|1859|310|251|227|293|422|356|FALSE|1299
"Tentacruel"|56|2211|368|298|270|349|502|424|FALSE|1300
"Vaporeon"|1|525|130|65|60|110|95|65|FALSE|1301
"Vaporeon"|7|606|150|75|69|128|109|75|FALSE|1302
"Vaporeon"|25|906|232|110|101|190|163|110|FALSE|1303
"Vaporeon"|31|1064|272|129|119|223|192|129|FALSE|1304
"Vaporeon"|55|1852|476|222|208|390|334|222|FALSE|1305
"Vaporeon"|73|3170|814|380|357|668|571|380|FALSE|1306
"Vaporeon"|79|3902|1000|469|440|821|703|469|FALSE|1307
"Vaporeon"|83|4187|1073|504|471|880|755|504|FALSE|1308
"Vaporeon"|97|5821|1489|702|656|1221|1051|702|FALSE|1309
"Vaporeon"|98|6009|1537|725|677|1260|1085|725|FALSE|1310
"Venomoth"|11|553|85|80|74|111|92|111|FALSE|1311
"Venomoth"|15|618|95|90|83|124|102|124|FALSE|1312
"Venomoth"|22|747|123|106|99|149|121|149|FALSE|1313
"Venomoth"|23|777|128|110|103|155|126|155|FALSE|1314
"Venomoth"|32|1016|172|143|133|202|164|202|FALSE|1315
"Venomoth"|48|1498|254|210|195|298|243|298|FALSE|1316
"Venomoth"|58|1890|327|263|244|375|306|375|FALSE|1317
"Venomoth"|88|3894|675|543|501|772|631|772|FALSE|1318
"Venomoth"|92|4331|751|603|557|859|702|859|FALSE|1319
"Venomoth"|94|4478|776|623|576|889|725|889|FALSE|1320
"Venonat"|17|456|100|81|73|56|81|65|FALSE|1321
"Venonat"|29|619|142|108|97|77|108|87|FALSE|1322
"Venonat"|32|676|155|118|106|84|118|95|FALSE|1323
"Venonat"|33|685|157|120|107|85|120|96|FALSE|1324
"Venonat"|35|753|173|132|117|93|132|106|FALSE|1325
"Venonat"|66|1671|386|293|259|202|293|238|FALSE|1326
"Venonat"|74|2063|475|362|322|249|362|293|FALSE|1327
"Venonat"|90|3028|695|533|473|366|533|428|FALSE|1328
"Venonat"|95|3633|833|640|567|439|640|514|FALSE|1329
"Venonat"|98|3904|896|688|609|471|688|552|FALSE|1330
"Victreebel"|6|573|93|123|77|116|82|82|FALSE|1331
"Victreebel"|35|1178|198|254|154|240|166|166|FALSE|1332
"Victreebel"|54|2146|361|463|281|433|304|304|FALSE|1333
"Victreebel"|61|2614|444|564|341|527|369|369|FALSE|1334
"Victreebel"|63|2834|482|611|370|571|400|400|FALSE|1335
"Victreebel"|84|4374|745|943|574|882|615|615|FALSE|1336
"Victreebel"|86|4685|798|1010|614|945|659|659|FALSE|1337
"Victreebel"|92|5572|948|1202|730|1124|784|784|FALSE|1338
"Victreebel"|95|6197|1054|1338|811|1250|872|872|FALSE|1339
"Victreebel"|96|6203|1055|1339|812|1251|873|873|FALSE|1340
"Vileplume"|6|539|86|86|93|120|99|55|FALSE|1341
"Vileplume"|16|670|121|104|113|145|119|68|FALSE|1342
"Vileplume"|28|849|158|131|140|183|150|87|FALSE|1343
"Vileplume"|31|912|170|141|151|196|161|93|FALSE|1344
"Vileplume"|37|1082|207|167|178|231|189|110|FALSE|1345
"Vileplume"|40|1157|226|177|190|246|201|117|FALSE|1346
"Vileplume"|42|1210|237|185|199|257|210|122|FALSE|1347
"Vileplume"|61|1820|356|278|301|384|318|183|FALSE|1348
"Vileplume"|62|1887|369|288|312|398|330|190|FALSE|1349
"Vileplume"|67|2256|442|344|373|475|394|228|FALSE|1350
"Voltorb"|3|349|42|32|53|58|58|106|FALSE|1351
"Voltorb"|14|453|64|41|66|74|74|134|FALSE|1352
"Voltorb"|16|472|67|43|69|77|77|139|FALSE|1353
"Voltorb"|30|622|99|54|89|100|100|180|FALSE|1354
"Voltorb"|43|838|151|70|117|131|131|238|FALSE|1355
"Voltorb"|44|852|154|71|119|133|133|242|FALSE|1356
"Voltorb"|57|1238|224|102|172|194|194|352|FALSE|1357
"Voltorb"|66|1514|278|123|209|237|237|430|FALSE|1358
"Voltorb"|87|2423|443|199|335|379|379|688|FALSE|1359
"Voltorb"|97|3006|550|247|417|469|469|854|FALSE|1360
"Vulpix"|16|454|92|56|55|69|91|91|FALSE|1361
"Vulpix"|35|741|160|90|88|111|146|146|FALSE|1362
"Vulpix"|39|839|181|102|100|126|165|165|FALSE|1363
"Vulpix"|61|1494|331|179|177|225|291|291|FALSE|1364
"Vulpix"|68|1761|390|211|209|265|343|343|FALSE|1365
"Vulpix"|84|2450|544|291|289|370|478|478|FALSE|1366
"Vulpix"|85|2457|546|292|290|371|479|479|FALSE|1367
"Vulpix"|88|2632|584|313|311|398|513|513|FALSE|1368
"Vulpix"|90|2722|604|324|322|412|530|530|FALSE|1369
"Vulpix"|98|3449|765|411|407|522|672|672|FALSE|1370
"Wartortle"|8|487|75|74|96|77|96|69|FALSE|1371
"Wartortle"|23|741|128|109|144|113|144|103|FALSE|1372
"Wartortle"|42|1199|214|177|229|182|229|168|FALSE|1373
"Wartortle"|59|1728|314|254|330|260|330|240|FALSE|1374
"Wartortle"|70|2377|436|347|454|357|454|329|FALSE|1375
"Wartortle"|72|2545|467|372|486|382|486|352|FALSE|1376
"Wartortle"|73|2598|477|380|496|390|496|359|FALSE|1377
"Wartortle"|78|2915|535|426|557|437|557|403|FALSE|1378
"Wartortle"|83|3395|623|496|649|509|649|469|FALSE|1379
"Wartortle"|95|4664|863|680|891|698|891|641|FALSE|1380
"Weedle"|13|267|68|45|38|26|26|64|FALSE|1381
"Weedle"|34|476|128|78|69|44|44|113|FALSE|1382
"Weedle"|37|497|134|81|72|46|46|118|FALSE|1383
"Weedle"|49|631|171|103|93|57|57|150|FALSE|1384
"Weedle"|55|719|197|117|106|64|64|171|FALSE|1385
"Weedle"|63|845|239|136|124|74|74|198|FALSE|1386
"Weedle"|82|1363|386|220|199|119|119|320|FALSE|1387
"Weedle"|83|1375|389|222|201|120|120|323|FALSE|1388
"Weedle"|88|1532|434|247|225|133|133|360|FALSE|1389
"Weedle"|90|1577|447|254|232|137|137|370|FALSE|1390
"Weepinbell"|4|410|68|94|53|89|48|58|FALSE|1391
"Weepinbell"|12|510|94|113|66|108|58|71|FALSE|1392
"Weepinbell"|27|725|135|161|92|156|82|99|FALSE|1393
"Weepinbell"|29|767|143|170|97|165|87|105|FALSE|1394
"Weepinbell"|45|1290|246|283|162|277|145|177|FALSE|1395
"Weepinbell"|54|1529|291|336|191|328|173|210|FALSE|1396
"Weepinbell"|72|2350|447|517|294|505|264|323|FALSE|1397
"Weepinbell"|73|2392|455|526|299|514|269|329|FALSE|1398
"Weepinbell"|81|2856|547|627|356|611|322|393|FALSE|1399
"Weepinbell"|83|2937|563|645|366|628|331|404|FALSE|1400
"Weezing"|20|741|111|132|178|125|107|88|FALSE|1401
"Weezing"|30|878|140|154|207|147|126|104|FALSE|1402
"Weezing"|31|907|145|159|214|152|130|107|FALSE|1403
"Weezing"|36|1038|166|182|244|174|149|123|FALSE|1404
"Weezing"|53|1464|245|256|343|242|207|171|FALSE|1405
"Weezing"|54|1527|256|267|358|252|216|178|FALSE|1406
"Weezing"|57|1686|283|295|395|278|239|196|FALSE|1407
"Weezing"|67|2248|377|393|527|371|320|260|FALSE|1408
"Weezing"|70|2379|399|416|558|393|338|275|FALSE|1409
"Weezing"|97|4418|750|770|1033|730|625|510|FALSE|1410
"Wigglytuff"|8|540|174|87|56|105|62|56|FALSE|1411
"Wigglytuff"|21|735|243|115|76|142|83|76|FALSE|1412
"Wigglytuff"|32|1022|337|160|106|197|116|106|FALSE|1413
"Wigglytuff"|72|2560|847|403|265|490|290|265|FALSE|1414
"Wigglytuff"|79|3065|1014|483|317|588|346|317|FALSE|1415
"Wigglytuff"|84|3464|1145|545|359|665|391|359|FALSE|1416
"Wigglytuff"|85|3559|1176|560|369|683|402|369|FALSE|1417
"Wigglytuff"|92|4182|1381|657|434|803|473|434|FALSE|1418
"Wigglytuff"|94|4414|1458|693|458|847|500|458|FALSE|1419
"Wigglytuff"|96|4706|1554|738|489|903|533|489|FALSE|1420
"Zapdos"|2|593|92|92|87|128|92|102|TRUE|1421
"Zapdos"|5|633|98|98|93|137|98|109|TRUE|1422
"Zapdos"|15|795|132|122|115|169|122|135|TRUE|1423
"Zapdos"|19|887|148|136|129|187|136|151|TRUE|1424
"Zapdos"|27|1080|189|164|156|225|164|182|TRUE|1425
"Zapdos"|62|2573|453|390|372|537|390|431|TRUE|1426
"Zapdos"|78|3957|695|600|573|827|600|662|TRUE|1427
"Zapdos"|83|4308|756|653|624|901|653|721|TRUE|1428
"Zapdos"|86|4803|843|728|696|1004|728|804|TRUE|1429
"Zapdos"|89|5310|931|805|770|1110|805|889|TRUE|1430
"Zubat"|9|300|53|53|43|36|48|67|FALSE|1431
"Zubat"|16|359|72|61|50|43|55|78|FALSE|1432
"Zubat"|37|624|133|103|85|77|92|134|FALSE|1433
"Zubat"|41|684|146|113|93|85|100|147|FALSE|1434
"Zubat"|50|824|176|136|113|102|120|177|FALSE|1435
"Zubat"|64|1240|264|205|170|154|181|266|FALSE|1436
"Zubat"|74|1493|323|246|203|185|217|319|FALSE|1437
"Zubat"|78|1631|353|268|222|202|237|349|FALSE|1438
"Zubat"|79|1639|355|269|223|203|238|351|FALSE|1439
"Zubat"|93|2416|524|397|328|299|349|519|FALSE|1440
